base_id	version	name	uniprot_ids	tax_id	class	family	collection	type	source	pubmed_ids	tax_group
UN0439	1	AP2-b	""	7719	Basic helix-span-helix factors (bHSH)	AP-2	UNVALIDATED	SELEX	31267468	""	urochordates
MA1843	1	AP4	""	7719	Basic helix-loop-helix factors (bHLH)	bHLH-ZIP	CORE	SELEX	31267468	17335570	urochordates
UN0440	1	Arid3	""	7719	ARID	ARID-related	UNVALIDATED	SELEX	31267468	""	urochordates
MA1844	1	Atbf	""	7719	Homeo domain factors	HOX	CORE	SELEX	31267468	26684323	urochordates
UN0441	1	Atf3-like	""	7719	Basic leucine zipper factors (bZIP)	Jun-related	UNVALIDATED	SELEX	31267468	""	urochordates
UN0442	1	Atf4-5	""	7719	Basic leucine zipper factors (bZIP)	Jun-related	UNVALIDATED	SELEX	31267468	""	urochordates
MA1845	1	Atoh7	""	7719	Basic helix-loop-helix factors (bHLH)	Tal-related	CORE	SELEX	31267468	15893980	urochordates
UN0443	1	Bcl6	""	7719	C2H2 zinc finger factors	More than 3 adjacent zinc fingers	UNVALIDATED	SELEX	31267468	""	urochordates
MA1846	1	Brachyury	""	7719	T-Box factors	Brachyury-related factors	CORE	SELEX	31267468	26684323	urochordates
MA1847	1	Bsx	""	7719	Homeo domain factors	NK	CORE	SELEX	31267468	26684323	urochordates
UN0444	1	Cdx	""	7719	Homeo domain factors	HOX	UNVALIDATED	SELEX	31267468	""	urochordates
MA1848	1	Cebpg	""	7719	Basic leucine zipper factors (bZIP)	CEBP-related	CORE	SELEX	31267468	23661758	urochordates
MA1849	1	Creb1	""	7719	Basic leucine zipper factors (bZIP)	CREB-related factors	CORE	SELEX	31267468	26684323	urochordates
UN0445	1	Creb3l1-2	""	7719	Basic leucine zipper factors (bZIP)	CREB-related factors	UNVALIDATED	SELEX	31267468	""	urochordates
UN0446	1	Creb3l3-4	""	7719	Basic leucine zipper factors (bZIP)	CREB-related factors	UNVALIDATED	SELEX	31267468	""	urochordates
MA1850	1	Dlx-b	""	7719	Homeo domain factors	NK	CORE	SELEX	31267468	26684323	urochordates
MA1851	1	Dlx-c	""	7719	Homeo domain factors	NK	CORE	SELEX	31267468	26684323	urochordates
UN0447	1	E2f1/2/3/6	""	7719	Fork head/winged helix factors	E2F	UNVALIDATED	SELEX	31267468	""	urochordates
UN0450	1	ESRR	""	7719	Nuclear receptors with C4 zinc fingers	Steroid hormone receptors (NR3)	UNVALIDATED	SELEX	31267468	""	urochordates
UN0448	1	Elf3-5	""	7719	Tryptophan cluster factors	Ets-related	UNVALIDATED	SELEX	31267468	""	urochordates
UN0449	1	Elk1-3-4	""	7719	""	""	UNVALIDATED	SELEX	31267468	""	urochordates
MA1852	1	Emx	""	7719	Homeo domain factors	NK	CORE	SELEX	31267468	26684323	urochordates
MA1853	1	Erf-a	""	7719	Tryptophan cluster factors	Ets-related	CORE	SELEX	31267468	20434338	urochordates
MA1854	1	Etv1/4/5	""	7719	Tryptophan cluster factors	Ets-related	CORE	SELEX	31267468	20434338	urochordates
MA1855	1	Fli-Erg-a	""	7719	Tryptophan cluster factors	Ets-related	CORE	SELEX	31267468	20434338	urochordates
MA1856	1	Fli-Erg-b	""	7719	Tryptophan cluster factors	Ets-related	CORE	SELEX	31267468	20434338	urochordates
MA1857	1	Fli-Erg-c	""	7719	Tryptophan cluster factors	Ets-related	CORE	SELEX	31267468	20434338	urochordates
MA1858	1	Fos-b	""	7719	Basic leucine zipper factors (bZIP)	Fos-related	CORE	SELEX	31267468	26684323	urochordates
MA1859	1	FoxA-a	""	7719	Fork head/winged helix factors	FOX	CORE	SELEX	31267468	19820186	urochordates
MA1860	1	FoxA-b	""	7719	Fork head/winged helix factors	FOX	CORE	SELEX	31267468	26684323	urochordates
MA1861	1	FoxB	""	7719	Fork head/winged helix factors	FOX	CORE	SELEX	31267468	26684323	urochordates
MA1862	1	FoxD-b	""	7719	Fork head/winged helix factors	FOX	CORE	SELEX	31267468	26684323	urochordates
MA1863	1	FoxE	""	7719	Fork head/winged helix factors	FOX	CORE	SELEX	31267468	26684323	urochordates
MA1864	1	FoxF	""	7719	Fork head/winged helix factors	FOX	CORE	SELEX	31267468	26684323	urochordates
MA1865	1	FoxG	""	7719	Fork head/winged helix factors	FOX	CORE	SELEX	31267468	26684323	urochordates
MA1866	1	FoxI-a	""	7719	Fork head/winged helix factors	FOX	CORE	SELEX	31267468	26684323	urochordates
MA1867	1	FoxI-b	""	7719	Fork head/winged helix factors	FOX	CORE	SELEX	31267468	26684323	urochordates
MA1868	1	FoxI-c	""	7719	Fork head/winged helix factors	FOX	CORE	SELEX	31267468	26684323	urochordates
MA1869	1	FoxK	""	7719	Fork head/winged helix factors	FOX	CORE	SELEX	31267468	26684323	urochordates
MA1870	1	FoxL2	""	7719	Fork head/winged helix factors	FOX	CORE	SELEX	31267468	26684323	urochordates
MA1871	1	FoxM	""	7719	Fork head/winged helix factors	FOX	CORE	SELEX	31267468	26684323	urochordates
MA1872	1	FoxO	""	7719	Fork head/winged helix factors	FOX	CORE	SELEX	31267468	26684323	urochordates
MA1873	1	FoxQ	""	7719	Fork head/winged helix factors	FOX	CORE	SELEX	31267468	26684323	urochordates
MA1874	1	GATA-a	""	7719	Other C4 zinc finger-type factors	C4-GATA-related	CORE	SELEX	31267468	21238449	urochordates
MA1875	1	GATA1/2/3	""	7719	Other C4 zinc finger-type factors	C4-GATA-related	CORE	SELEX	31267468	21238449	urochordates
UN0451	1	Gli1-2-3	""	7719	C2H2 zinc finger factors	More than 3 adjacent zinc fingers	UNVALIDATED	SELEX	31267468	""	urochordates
UN0452	1	Glis	""	7719	C2H2 zinc finger factors	More than 3 adjacent zinc fingers	UNVALIDATED	SELEX	31267468	""	urochordates
MA1876	1	Gsx	""	7719	Homeo domain factors	HOX	CORE	SELEX	31267468	26684323	urochordates
UN0453	1	HNF4	""	7719	Nuclear receptors with C4 zinc fingers	RXR-related receptors (NR2)	UNVALIDATED	SELEX	31267468	""	urochordates
MA1877	1	Hes-b	""	7719	Basic helix-loop-helix factors (bHLH)	Hairy-related factors	CORE	SELEX	31267468	26684323	urochordates
MA1878	1	Hes-c	""	7719	Basic helix-loop-helix factors (bHLH)	Hairy-related factors	CORE	SELEX	31267468	26684323	urochordates
MA1879	1	Hex	""	7719	Homeo domain factors	""	CORE	SELEX	31267468	26684323	urochordates
MA1880	1	Hey	""	7719	Basic helix-loop-helix factors (bHLH)	Hairy-related factors	CORE	SELEX	31267468	26684323	urochordates
MA1881	1	Hmbox1	""	7719	Homeo domain factors	POU domain factors	CORE	SELEX	31267468	26684323	urochordates
MA1882	1	Hnf1	""	7719	Homeo domain factors	POU domain factors	CORE	SELEX	31267468	26684323	urochordates
MA1883	1	Hox1	""	7719	Homeo domain factors	HOX	CORE	SELEX	31267468	26684323	urochordates
MA1884	1	Hox3	""	7719	Homeo domain factors	HOX	CORE	SELEX	31267468	26684323	urochordates
MA1885	1	Hox4	""	7719	Homeo domain factors	HOX	CORE	SELEX	31267468	26684323	urochordates
MA1886	1	Hox5	""	7719	Homeo domain factors	HOX	CORE	SELEX	31267468	26684323	urochordates
MA1887	1	Hsf1-2-4	""	7719	Heat shock factors	HSF factors	CORE	SELEX	31267468	25366274	urochordates
MA1888	1	Irf-b	""	7719	Tryptophan cluster factors	Interferon-regulatory factors	CORE	SELEX	31267468	32750546	urochordates
MA1889	1	Isx	""	7719	Homeo domain factors	Paired-related HD factors	CORE	SELEX	31267468	26684323	urochordates
MA1890	1	Klf15	""	7719	C2H2 zinc finger factors	Three-zinc finger Kruppel-related	CORE	SELEX	31267468	26684323	urochordates
MA1891	1	Klf3/8/12	""	7719	C2H2 zinc finger factors	Three-zinc finger Kruppel-related	CORE	SELEX	31267468	26684323	urochordates
MA1892	1	Klf5-like	""	7719	C2H2 zinc finger factors	Three-zinc finger Kruppel-related	CORE	SELEX	31267468	26684323	urochordates
MA1893	1	Klf6-7-like	""	7719	C2H2 zinc finger factors	Three-zinc finger Kruppel-related	CORE	SELEX	31267468	26684323	urochordates
MA1895	1	Lhx3/4	""	7719	Homeo domain factors	HD-LIM	CORE	SELEX	31267468	26684323	urochordates
MA1896	1	Lmx-b	""	7719	Homeo domain factors	HD-LIM	CORE	SELEX	31267468	26684323	urochordates
MA0118	1	Macho-1	""	7729	C2H2 zinc finger factors	""	CORE	SELEX		15661650	urochordates
MA1897	1	Max	""	7719	Basic helix-loop-helix factors (bHLH)	bHLH-ZIP	CORE	SELEX	31267468	26684323	urochordates
UN0454	1	Mef2	""	7719	MADS box factors	Regulators of differentiation	UNVALIDATED	SELEX	31267468	""	urochordates
UN0455	1	Meis	""	7719	Homeo domain factors	TALE-type homeo domain factors	UNVALIDATED	SELEX	31267468	""	urochordates
MA1898	1	Meox	""	7719	Homeo domain factors	HOX	CORE	SELEX	31267468	26684323	urochordates
UN0456	1	Mesp-Msgn	""	7719	""	""	UNVALIDATED	SELEX	31267468	""	urochordates
MA1899	1	Mitf	""	7719	Basic helix-loop-helix factors (bHLH)	bHLH-ZIP	CORE	SELEX	31267468	26684323	urochordates
MA1900	1	Mnx	""	7719	Homeo domain factors	HOX	CORE	SELEX	31267468	26684323	urochordates
MA1901	1	Msx	""	7719	Homeo domain factors	NK	CORE	SELEX	31267468	26684323	urochordates
MA1902	1	NFkb	""	7719	Rel homology region (RHR) factors	NF-kappaB-related factors	CORE	SELEX	31267468	32647255	urochordates
UN0459	1	NR2C1-2	""	7719	Nuclear receptors with C4 zinc fingers	XR-related receptors (NR2)	UNVALIDATED	SELEX	31267468	""	urochordates
UN0457	1	Nfil3-b	""	7719	Basic leucine zipper factors (bZIP)	CEBP-related	UNVALIDATED	SELEX	31267468	""	urochordates
MA1903	1	Nk-1	""	7719	Homeo domain factors	NK	CORE	SELEX	31267468	26684323	urochordates
MA1904	1	Nk-3	""	7719	Homeo domain factors	NK	CORE	SELEX	31267468	26684323	urochordates
UN0458	1	Nkx2-3-5-6	""	7719	Homeo domain factors	NK	UNVALIDATED	SELEX	31267468	""	urochordates
MA1905	1	Nkx3	""	7719	Homeo domain factors	NK	CORE	SELEX	31267468	26684323	urochordates
MA1906	1	Noto	""	7719	Homeo domain factors	NK	CORE	SELEX	31267468	26684323	urochordates
UN0460	1	Osr1-2-b	""	7719	C2H2 zinc finger factors	Other factors with up to three adjacent zinc fingers	UNVALIDATED	SELEX	31267468	""	urochordates
MA1907	1	Otp	""	7719	Homeo domain factors	Paired-related HD factors	CORE	SELEX	31267468	26684323	urochordates
MA1908	1	Otx	""	7719	Homeo domain factors	Paired-related HD factors	CORE	SELEX	31267468	25121599	urochordates
UN0462	1	Pax2-5-8-a	""	7719	Paired box factors	Paired domain only	UNVALIDATED	SELEX	31267468	""	urochordates
UN0463	1	Pax3-7-like	""	7719	Paired box factors	Paired plus homeo domain	UNVALIDATED	SELEX	31267468	""	urochordates
UN0464	1	Pax6	""	7719	Paired box factors	Paired plus homeo domain	UNVALIDATED	SELEX	31267468	""	urochordates
UN0465	1	Pknox	""	7719	Homeo domain factors	TALE-type homeo domain factors	UNVALIDATED	SELEX	31267468	""	urochordates
UN0466	1	Pou4	""	7719	Homeo domain factors	POU domain factors	UNVALIDATED	SELEX	31267468	""	urochordates
MA1909	1	Prop	""	7719	Homeo domain factors	Paired-related HD factors	CORE	SELEX	31267468	26684323	urochordates
UN0467	1	Prox-a	""	7719	Homeo domain factors	HD-PROS factors	UNVALIDATED	SELEX	31267468	""	urochordates
MA1910	1	Rax	""	7719	Homeo domain factors	Paired-related HD factors	CORE	SELEX	31267468	26684323	urochordates
MA1911	1	Rel	""	7719	Rel homology region (RHR) factors	NF-kappaB-related factors	CORE	SELEX	31267468	32647255	urochordates
UN0468	1	Sall-b	""	7719	C2H2 zinc finger factors	Factors with multiple dispersed zinc fingers	UNVALIDATED	SELEX	31267468	""	urochordates
UN0469	1	Six1-2	""	7719	Homeo domain factors	HD-SINE	UNVALIDATED	SELEX	31267468	""	urochordates
MA1912	1	Six3/6	""	7719	Homeo domain factors	HD-SINE	CORE	SELEX	31267468	18989625	urochordates
MA1914	1	Snail	""	7719	C2H2 zinc finger factors	More than 3 adjacent zinc fingers	CORE	SELEX	31267468	11994736	urochordates
MA1915	1	SoxB1	""	7719	High-mobility group (HMG) domain factors	SOX-related factors	CORE	SELEX	31267468	24680932	urochordates
MA1916	1	SoxB2	""	7719	High-mobility group (HMG) domain factors	SOX-related factors	CORE	SELEX	31267468	24680932	urochordates
MA1917	1	SoxC	""	7719	High-mobility group (HMG) domain factors	SOX-related factors	CORE	SELEX	31267468	24680932	urochordates
MA1918	1	SoxF	""	7719	High-mobility group (HMG) domain factors	SOX-related factors	CORE	SELEX	31267468	24680932	urochordates
UN0470	1	Srf	""	7719	MADS box factors	Regulators of differentiation	UNVALIDATED	SELEX	31267468	""	urochordates
MA1919	1	Tbox-a	""	7719	T-Box factors	TBX1-related factors	CORE	SELEX	31267468	26684323	urochordates
MA1920	1	Tbox-b	""	7719	T-Box factors	TBX1-related factors	CORE	SELEX	31267468	26684323	urochordates
MA1921	1	Tbx15/18/22	""	7719	T-Box factors	TBX1-related factors	CORE	SELEX	31267468	20592183	urochordates
MA1922	1	Tbx2/3	""	7719	T-Box factors	TBX2-related factors	CORE	SELEX	31267468	20592183	urochordates
MA1923	1	Tcf3-4-12	""	7719	Basic helix-loop-helix factors (bHLH)	E2A	CORE	SELEX	31267468	26684323	urochordates
UN0471	1	Tef-Hlf	""	7719	Basic leucine zipper factors (bZIP)	CEBP-related	UNVALIDATED	SELEX	31267468	""	urochordates
MA1924	1	Tlx	""	7719	Homeo domain factors	NK	CORE	SELEX	31267468	26684323	urochordates
MA1925	1	Uncx-b	""	7719	Homeo domain factors	Paired-related HD factors	CORE	SELEX	31267468	26684323	urochordates
MA1926	1	Usf	""	7719	Basic helix-loop-helix factors (bHLH)	bHLH-ZIP	CORE	SELEX	31267468	15013810	urochordates
MA1927	1	YY1-2	""	7719	C2H2 zinc finger factors	More than 3 adjacent zinc fingers	CORE	SELEX	31267468	29795182	urochordates
UN0476	1	ZF-C2H2-1	""	7719	C2H2 zinc finger factors	""	UNVALIDATED	SELEX	31267468	""	urochordates
UN0477	1	ZF-C2H2-10	""	7719	C2H2 zinc finger factors	""	UNVALIDATED	SELEX	31267468	""	urochordates
UN0478	1	ZF-C2H2-15	""	7719	C2H2 zinc finger factors	""	UNVALIDATED	SELEX	31267468	""	urochordates
UN0479	1	ZF-C2H2-35	""	7719	C2H2 zinc finger factors	""	UNVALIDATED	SELEX	31267468	""	urochordates
UN0480	1	ZF-C2H2-6	""	7719	C2H2 zinc finger factors	""	UNVALIDATED	SELEX	31267468	""	urochordates
UN0481	1	ZF-C2H2-7	""	7719	C2H2 zinc finger factors	""	UNVALIDATED	SELEX	31267468	""	urochordates
UN0475	1	Zbtb7	""	7719	C2H2 zinc finger factors	More than 3 adjacent zinc fingers	UNVALIDATED	SELEX	31267468	""	urochordates
UN0482	1	Zfp161	""	7719	C2H2 zinc finger factors	More than 3 adjacent zinc fingers	UNVALIDATED	SELEX	31267468	""	urochordates
UN0483	1	Zfp298	""	7719	""	""	UNVALIDATED	SELEX	31267468	""	urochordates
UN0484	1	Zfp367	""	7719	C2H2 zinc finger factors	""	UNVALIDATED	SELEX	31267468	""	urochordates
MA1894	1	large-Maf	""	7719	Basic leucine zipper factors (bZIP)	Maf-related	CORE	SELEX	31267468	18159220	urochordates
UN0461	1	p53-a	""	7719	p53 domain factors	p53-related factors	UNVALIDATED	SELEX	31267468	""	urochordates
MA1913	1	small-Maf	""	7719	Basic leucine zipper factors (bZIP)	Maf-related	CORE	SELEX	31267468	18159220	urochordates
UN0472	1	xBP-a	""	7719	Basic leucine zipper factors (bZIP)	XBP-1-related factors	UNVALIDATED	SELEX	31267468	""	urochordates
UN0473	1	xBP-b	""	7719	Basic leucine zipper factors (bZIP)	XBP-1-related factors	UNVALIDATED	SELEX	31267468	""	urochordates
UN0474	1	xBP-c	""	7719	Basic leucine zipper factors (bZIP)	XBP-1-related factors	UNVALIDATED	SELEX	31267468	""	urochordates
