base_id	version	name	uniprot_ids	tax_id	class	family	collection	type	source	pubmed_ids	tax_group
UN0271	1	gtaJ	""	44689	Other C4 zinc finger-type factors	C4-GATA-related	UNVALIDATED	PBM	31133749	""	dictyostelium
UN0272	1	gtaS	""	44689	Other C4 zinc finger-type factors	C4-GATA-related	UNVALIDATED	PBM	31133749	""	dictyostelium
