base_id	version	name	uniprot_ids	tax_id	class	family	collection	type	source	pubmed_ids	tax_group
MA0570	2	ABF1	""	3702	Basic leucine zipper factors (bZIP)	Group A	CORE	ChIP-seq	30445619	10636868	plants
MA0941	1	ABF2	""	3702	Basic leucine zipper factors (bZIP)	Group A	CORE	PBM	25215497	11005831	plants
MA0930	2	ABF3	""	3702	Basic leucine zipper factors (bZIP)	Group A	CORE		ReMap	11005831::11005831	plants
MA1659	1	ABF4	""	3702	Basic leucine zipper factors (bZIP)	Group A	CORE	DAP-seq	27203113	25220462	plants
MA0564	1	ABI3	""	3702	B3	ABI3	CORE	PBM		30183137	plants
MA0931	1	ABI5	""	3702	Basic leucine zipper factors (bZIP)	Group A	CORE	PBM	25215497	12376636	plants
MA1244	1	ABR1	""	3702	AP2/EREBP	ERF/DREB	CORE	DAP-seq	27203113	9756931	plants
MA0005	2	AG	""	3702	MADS box factors	MIKC	CORE	SELEX		7901838	plants
MA0585	1	AGL1	""	3702	MADS box factors	MIKC	CORE	SELEX		8597661	plants
MA1204	1	AGL13	""	3702	MADS box factors	MIKC	CORE	DAP-seq	27203113	12743119	plants
MA0548	2	AGL15	""	3702	MADS box factors	MIKC	CORE	DAP-seq	27203113	12743119	plants
MA1199	1	AGL16	""	3702	MADS box factors	MIKC	CORE	DAP-seq	27203113	12743119	plants
MA1012	1	AGL27	""	3702	MADS box factors	MIKC	CORE	ChIP-seq	25361952	24067612	plants
MA0001	2	AGL3	""	3702	MADS box factors	MIKC	CORE	SELEX		8597661	plants
MA1201	1	AGL42	""	3702	MADS box factors	MIKC	CORE	DAP-seq	27203113	12743119	plants
MA1202	1	AGL55	""	3702	MADS box factors	M alpha	CORE	DAP-seq	27203113	12743119	plants
MA1205	1	AGL6	""	3702	MADS box factors	MIKC	CORE	DAP-seq	27203113	12743119	plants
MA1203	1	AGL63	""	3702	MADS box factors	MIKC	CORE	DAP-seq	27203113	12743119	plants
UN0386	1	AGL95	""	3702	MADS box factors	M gamma	UNVALIDATED	DAP-seq	27203113	""	plants
MA0932	1	AHL12	""	3702	A.T hook factors	""	CORE	PBM	24477691	22442143	plants
MA0933	1	AHL20	""	3702	A.T hook factors	""	CORE	PBM	24477691	22442143	plants
MA0934	1	AHL25	""	3702	A.T hook factors	""	CORE	PBM	24477691	22442143	plants
MA0959	1	AIB	""	3702	Basic helix-loop-helix factors (bHLH)	""	CORE	PBM	24465948	21335373	plants
MA1378	1	AIL6	""	3702	AP2/EREBP	AP2	CORE	DAP-seq	27203113	11058102	plants
MA1235	1	AIL7	""	3702	AP2/EREBP	AP2	CORE	DAP-seq	27203113	11058102	plants
MA1375	1	ANL2	""	3702	Homeo domain factors	HD-ZIP	CORE	DAP-seq	27203113	25215497	plants
MA0571	1	ANT	""	3702	AP2/EREBP	AP2	CORE	SELEX		11058102	plants
MA0940	1	AP1	""	3702	MADS box factors	MIKC	CORE	ChIP-seq	25361952	8774892	plants
MA0556	1	AP3	""	3702	MADS box factors	MIKC	CORE	ChIP-seq		8774892	plants
MA1098	1	ARALYDRAFT_484486	""	81972	Basic helix-loop-helix factors (bHLH)	TCP	CORE	PBM	25215497	21241251	plants
MA1097	1	ARALYDRAFT_493022	""	81972	Basic helix-loop-helix factors (bHLH)	TCP	CORE	PBM	25215497	21241251	plants
MA1095	1	ARALYDRAFT_495258	""	81972	Basic helix-loop-helix factors (bHLH)	TCP	CORE	PBM	25215497	21241251	plants
MA1096	1	ARALYDRAFT_496250	""	81972	Basic helix-loop-helix factors (bHLH)	TCP	CORE	PBM	25215497	21241251	plants
MA1054	1	ARALYDRAFT_897773	""	81972	Basic helix-loop-helix factors (bHLH)	TCP	CORE	PBM	25215497	21241251	plants
MA0942	1	ARF1	""	3702	B3	ARF	CORE	PBM	24485461	9188533	plants
MA1685	1	ARF10	""	4577	B3	ARF	CORE	DAP-seq	30375394	24485461	plants
MA1686	1	ARF13	""	4577	B3	ARF	CORE	DAP-seq	30375394	24485461	plants
MA1687	1	ARF14	""	4577	B3	ARF	CORE	DAP-seq	30375394	24485461	plants
MA1688	1	ARF16	""	4577	B3	ARF	CORE	DAP-seq	30375394	24485461	plants
MA1689	1	ARF18	""	4577	B3	ARF	CORE	DAP-seq	30375394	24485461	plants
MA1206	1	ARF2	""	3702	B3	ARF	CORE	DAP-seq	27203113	25002510	plants
MA1690	1	ARF25	""	4577	B3	ARF	CORE	DAP-seq	30375394	24485461	plants
MA1691	1	ARF27	""	4577	B3	ARF	CORE	DAP-seq	30375394	24485461	plants
MA1692	1	ARF29	""	4577	B3	ARF	CORE	DAP-seq	30375394	24485461	plants
MA1009	1	ARF3	""	3702	B3	ARF	CORE	PBM	24477691	24485461	plants
MA1693	1	ARF34	""	4577	B3	ARF	CORE	DAP-seq	30375394	24485461	plants
MA1694	1	ARF35	""	4577	B3	ARF	CORE	DAP-seq	30375394	24485461	plants
MA1695	1	ARF36	""	4577	B3	ARF	CORE	DAP-seq	30375394	24485461	plants
MA1696	1	ARF39	""	4577	B3	ARF	CORE	DAP-seq	30375394	24485461	plants
MA1697	1	ARF4	""	4577	B3	ARF	CORE	DAP-seq	30375394	24485461	plants
MA0943	1	ARF5	""	3702	B3	ARF	CORE	PBM	24485461	25002510	plants
MA1698	1	ARF7	""	4577	B3	ARF	CORE	DAP-seq	30375394	24485461	plants
MA0944	1	ARF8	""	3702	B3	ARF	CORE	PBM	25215497	24485461	plants
UN0388	1	ARID3	""	3702	ARID	""	UNVALIDATED	DAP-seq	27203113	""	plants
UN0351	1	ARID6	""	3702	ARID	""	UNVALIDATED	DAP-seq	27203113	""	plants
MA0945	1	ARR1	""	3702	Tryptophan cluster factors	GARP_ARR-B	CORE	PBM	25215497	11135105	plants
MA0121	1	ARR10	""	3702	Tryptophan cluster factors	GARP_ARR-B	CORE	SELEX		12215502	plants
MA0946	1	ARR11	""	3702	Tryptophan cluster factors	GARP_ARR-B	CORE	PBM	24477691	12610214	plants
MA0947	1	ARR14	""	3702	Tryptophan cluster factors	GARP_ARR-B	CORE	PBM	24477691	25215497	plants
MA0948	1	ARR18	""	3702	Tryptophan cluster factors	GARP_ARR-B	CORE	PBM	25215497	25215497	plants
MA0949	1	ARR2	""	3702	Tryptophan cluster factors	GARP_ARR-B	CORE	PBM	25215497	25215497	plants
MA2039	1	ASIL2	""	3702	Tryptophan cluster factors	Trihelix	CORE		ReMap	25215497	plants
MA1812	1	ASR1	""	4081	Tryptophan cluster factors	Myb-related	CORE	ChIP-seq	24423251	15101820	plants
MA1733	1	ASR3	""	3702	Tryptophan cluster factors	Trihelix	CORE	DAP-seq	27203113	22236699	plants
MA1706	1	AT1G14600	""	3702	Tryptophan cluster factors	GARP_G2-like	CORE	PBM	31133749	24464295	plants
MA1400	1	AT1G19000	""	3702	Tryptophan cluster factors	Myb-related	CORE	DAP-seq	27203113	25215497	plants
MA1734	1	AT1G19040	""	3702	GCM domain factors	NAC	CORE	DAP-seq	27203113	20935069	plants
UN0389	1	AT1G66420	""	3702	GeBP/Storekeeper	""	UNVALIDATED	DAP-seq	27203113	""	plants
MA1353	1	AT1G72740	""	3702	Tryptophan cluster factors	Myb-related	CORE	DAP-seq	27203113	22197883	plants
MA1397	1	AT1G74840	""	3702	Tryptophan cluster factors	Myb-related	CORE	DAP-seq	27203113	25215497	plants
MA1367	1	AT1G76870	""	3702	Tryptophan cluster factors	Trihelix	CORE	DAP-seq	27203113	22236699	plants
UN0390	1	AT2G31460	""	3702	B3	REM	UNVALIDATED	DAP-seq	27203113	""	plants
MA1193	1	AT2G38090	""	3702	Tryptophan cluster factors	Myb-related	CORE	DAP-seq	27203113	25215497	plants
MA1735	1	AT2G38300	""	3702	Tryptophan cluster factors	GARP_G2-like	CORE	DAP-seq	27203113	25215497	plants
MA1385	1	AT2G40260	""	3702	Tryptophan cluster factors	GARP_G2-like	CORE	DAP-seq	27203113	25215497	plants
MA1662	1	AT3G10030	""	3702	Tryptophan cluster factors	Trihelix	CORE	DAP-seq	27203113	31133749	plants
MA1194	1	AT3G10580	""	3702	Tryptophan cluster factors	Myb-related	CORE	DAP-seq	27203113	25215497	plants
UN0353	1	AT3G11100	""	3702	Tryptophan cluster factors	Trihelix	UNVALIDATED	DAP-seq	27203113	""	plants
UN0354	1	AT3G42860	""	3702	CH3	GRF	UNVALIDATED	DAP-seq	27203113	""	plants
MA1381	1	AT3G46070	""	3702	C2H2 zinc finger factors	""	CORE	DAP-seq	27203113	24567191	plants
UN0355	1	AT3G49930	""	3702	C2H2 zinc finger factors	""	UNVALIDATED	DAP-seq	27203113	""	plants
UN0391	1	AT3G58630	""	3702	Tryptophan cluster factors	Trihelix	UNVALIDATED	DAP-seq	27203113	""	plants
UN0392	1	AT4G00390	""	3702	GeBP/Storekeeper	""	UNVALIDATED	PBM	25220462	""	plants
UN0393	1	AT4G09450	""	3702	Tryptophan cluster factors	Myb-related	UNVALIDATED	PBM	25220462	""	plants
MA1354	1	AT4G12670	""	3702	Tryptophan cluster factors	Myb-related	CORE	DAP-seq	27203113	22197883	plants
MA1736	1	AT5G04390	""	3702	C2H2 zinc finger factors	""	CORE	PBM	25215497	27203113	plants
MA2031	1	AT5G04760	""	3702	Tryptophan cluster factors	Myb-related	CORE		ReMap	25215497	plants
MA1737	1	AT5G05090	""	3702	Tryptophan cluster factors	GARP_G2-like	CORE	PBM	25215497	24477691	plants
MA2040	1	AT5G05550	""	3702	Tryptophan cluster factors	Trihelix	CORE		ReMap	25215497	plants
MA1196	1	AT5G05790	""	3702	Tryptophan cluster factors	Myb-related	CORE	DAP-seq	27203113	25215497	plants
UN0357	1	AT5G23930	""	3702	mTERF	""	UNVALIDATED	DAP-seq	27203113	""	plants
MA1365	2	AT5G47660	""	3702	Tryptophan cluster factors	Trihelix	CORE	DAP-seq	27203113	25215497	plants
MA1195	1	AT5G56840	""	3702	Tryptophan cluster factors	Myb-related	CORE	DAP-seq	27203113	25215497	plants
MA1189	1	AT5G61620	""	3702	Tryptophan cluster factors	Myb-related	CORE	DAP-seq	27203113	25215497	plants
MA0950	1	ATHB-12	""	3702	Homeo domain factors	HD-ZIP	CORE	PBM	24477691	11247607	plants
MA1212	1	ATHB-13	""	3702	Homeo domain factors	HD-ZIP	CORE	DAP-seq	27203113	11247607	plants
MA1026	2	ATHB-15	""	3702	Homeo domain factors	HD-ZIP	CORE	DAP-seq	27203113	11247607	plants
MA0951	1	ATHB-16	""	3702	Homeo domain factors	HD-ZIP	CORE	PBM	25215497	11247607	plants
MA1209	1	ATHB-20	""	3702	Homeo domain factors	HD-ZIP	CORE	DAP-seq	27203113	11247607	plants
MA1327	2	ATHB-23	""	3702	Homeo domain factors	HD-ZIP	CORE	DAP-seq	27203113	11247607	plants
MA1406	1	ATHB-4	""	3702	Homeo domain factors	HD-ZIP	CORE	PBM	28805249	11247607	plants
MA1214	1	ATHB-40	""	3702	Homeo domain factors	HD-ZIP	CORE	DAP-seq	27203113	11247607	plants
MA0110	3	ATHB-5	""	3702	Homeo domain factors	HD-ZIP	CORE	DAP-seq	27203113	11247607	plants
MA0952	1	ATHB-51	""	3702	Homeo domain factors	HD-ZIP	CORE	PBM	24477691	16554366	plants
MA1215	1	ATHB-53	""	3702	Homeo domain factors	HD-ZIP	CORE	DAP-seq	27203113	11247607	plants
MA0953	1	ATHB-6	""	3702	Homeo domain factors	HD-ZIP	CORE	PBM	25215497	11247607	plants
MA0954	2	ATHB-7	""	3702	Homeo domain factors	HD-ZIP	CORE	DAP-seq	27203113	11247607	plants
MA0573	1	ATHB-9	""	3702	Homeo domain factors	HD-ZIP	CORE	SELEX		9747806	plants
MA1211	1	ATHB-X	""	3702	Homeo domain factors	HD-ZIP	CORE	DAP-seq	27203113	11247607	plants
MA1738	1	ATMYB31	""	3702	Tryptophan cluster factors	Myb	CORE	DAP-seq	27203113	26484765	plants
MA1188	1	At3g11280	""	3702	Tryptophan cluster factors	Myb-related	CORE	DAP-seq	27203113	25215497	plants
UN0394	1	AtPLATZ6	""	3702	CHC2-C2H2-C4 zinc finger factors	Platz	UNVALIDATED	DAP-seq	27203113	""	plants
MA2014	1	BAM8	""	3702	Basic helix-loop-helix factors (bHLH)	BES/BZR	CORE		ReMap	21487098	plants
MA0956	1	BEE2	""	3702	Basic helix-loop-helix factors (bHLH)	""	CORE	PBM	25215497	12897250	plants
MA1332	1	BEH2	""	3702	Basic helix-loop-helix factors (bHLH)	BES/BZR	CORE	DAP-seq	27203113	15681342	plants
MA1333	1	BEH3	""	3702	Basic helix-loop-helix factors (bHLH)	BES/BZR	CORE	DAP-seq	27203113	15681342	plants
MA1331	1	BEH4	""	3702	Basic helix-loop-helix factors (bHLH)	BES/BZR	CORE	DAP-seq	27203113	15681342	plants
UN0688	1	BHLH10	""	3702	Basic helix-loop-helix factors (bHLH)	""	UNVALIDATED		ReMap	""	plants
MA0960	1	BHLH104	""	3702	Basic helix-loop-helix factors (bHLH)	""	CORE	PBM	25215497	21335373	plants
MA0961	1	BHLH112	""	39947	Basic helix-loop-helix factors (bHLH)	""	CORE	PBM	25215497	21335373	plants
MA1739	1	BHLH122	""	3702	Basic helix-loop-helix factors (bHLH)	""	CORE	DAP-seq	27203113	24261563	plants
MA0958	1	BHLH13	""	3702	Basic helix-loop-helix factors (bHLH)	""	CORE	PBM	24465948	21335373	plants
UN0359	1	BHLH28	""	3702	Basic helix-loop-helix factors (bHLH)	""	UNVALIDATED	DAP-seq	27203113	""	plants
MA0957	1	BHLH3	""	3702	Basic helix-loop-helix factors (bHLH)	""	CORE	PBM	24465948	21335373	plants
MA0962	1	BHLH34	""	3702	Basic helix-loop-helix factors (bHLH)	""	CORE	PBM	25215497	21335373	plants
MA1740	1	BHLH49	""	3702	Basic helix-loop-helix factors (bHLH)	""	CORE	PBM	25220462	12897250	plants
MA1364	1	BHLH72	""	3702	Basic helix-loop-helix factors (bHLH)	""	CORE	DAP-seq	27203113	15448264	plants
MA1360	2	BHLH74	""	3702	Basic helix-loop-helix factors (bHLH)	""	CORE		ReMap	21335373	plants
MA0963	1	BHLH78	""	3702	Basic helix-loop-helix factors (bHLH)	""	CORE	PBM	25215497	21335373	plants
MA0964	2	BIM1	""	3702	Basic helix-loop-helix factors (bHLH)	""	CORE		ReMap	15680330	plants
MA0965	2	BIM2	""	3702	Basic helix-loop-helix factors (bHLH)	""	CORE		ReMap	15680330	plants
MA0966	1	BIM3	""	3702	Basic helix-loop-helix factors (bHLH)	""	CORE	PBM	25215497	15680330	plants
MA1404	1	BPC1	""	3702	BBR/BPC	""	CORE	DAP-seq	27203113	15722463	plants
MA1403	1	BPC5	""	3702	BBR/BPC	""	CORE	DAP-seq	27203113	15722463	plants
MA1402	1	BPC6	""	3702	BBR/BPC	""	CORE	DAP-seq	27203113	15722463	plants
MA1359	2	BPE	""	3702	Basic helix-loop-helix factors (bHLH)	""	CORE		ReMap	21335373	plants
MA1741	1	BRN2	""	3702	GCM domain factors	NAC	CORE	DAP-seq	27203113	20935069	plants
MA1334	1	BZIP11	""	3702	Basic leucine zipper factors (bZIP)	Group S	CORE	DAP-seq	27203113	9680995	plants
MA1349	1	BZIP16	""	3702	Basic leucine zipper factors (bZIP)	Group G	CORE	DAP-seq	27203113	8487298	plants
MA1742	1	BZIP18	""	3702	Basic leucine zipper factors (bZIP)	Group I	CORE	DAP-seq	27203113	23942522	plants
MA1743	1	BZIP2	""	3702	Basic leucine zipper factors (bZIP)	Group S	CORE	DAP-seq	27203113	9680995	plants
MA1344	1	BZIP28	""	3702	Basic leucine zipper factors (bZIP)	Group B	CORE	DAP-seq	27203113	8487298	plants
MA1340	1	BZIP3	""	3702	Basic leucine zipper factors (bZIP)	Group S	CORE	DAP-seq	27203113	8487298	plants
MA1744	1	BZIP30	""	3702	Basic leucine zipper factors (bZIP)	Group I	CORE	PBM	25215497	23942522	plants
MA1350	1	BZIP42	""	3702	Basic leucine zipper factors (bZIP)	Group S	CORE	DAP-seq	27203113	9680995	plants
MA1339	1	BZIP43	""	3702	Basic leucine zipper factors (bZIP)	Group S	CORE	DAP-seq	27203113	9680995	plants
MA1337	1	BZIP44	""	3702	Basic leucine zipper factors (bZIP)	Group S	CORE	DAP-seq	27203113	9680995	plants
MA1345	1	BZIP48	""	3702	Basic leucine zipper factors (bZIP)	Group S	CORE	DAP-seq	27203113	9680995	plants
MA1343	1	BZIP52	""	3702	Basic leucine zipper factors (bZIP)	Group I	CORE	DAP-seq	27203113	8487298	plants
MA1341	1	BZIP53	""	3702	Basic leucine zipper factors (bZIP)	Group S	CORE	DAP-seq	27203113	9680995	plants
MA0967	1	BZIP60	""	3702	Basic leucine zipper factors (bZIP)	Group K	CORE	PBM	24477691	8487298	plants
MA1745	1	BZIP63	""	3702	Basic leucine zipper factors (bZIP)	Group C	CORE	PBM	25215497	8487298	plants
MA0968	2	BZIP68	""	3702	Basic leucine zipper factors (bZIP)	Group G	CORE	DAP-seq	27203113	9680995	plants
MA1746	1	BZIP69	""	3702	Basic leucine zipper factors (bZIP)	Group I	CORE	DAP-seq	27203113	23942522	plants
MA0550	2	BZR1	""	3702	Basic helix-loop-helix factors (bHLH)	BES/BZR	CORE	ChIP-chip	27203113	15681342	plants
MA0549	1	BZR2	""	3702	Basic helix-loop-helix factors (bHLH)	BES/BZR	CORE	ChIP-chip		15680330	plants
MA1197	1	CAMTA1	""	3702	CAMTA	""	CORE	DAP-seq	27203113	25215497	plants
MA0969	1	CAMTA2	""	3702	CAMTA	""	CORE	PBM	25215497	17689537	plants
MA0970	1	CAMTA3	""	3702	CAMTA	""	CORE	PBM	25215497	17689537	plants
MA0972	1	CCA1	""	3702	Tryptophan cluster factors	Myb-related	CORE	PBM	24477691	19218364	plants
MA0579	1	CDC5	""	3702	Tryptophan cluster factors	Myb-related	CORE	SELEX		8917598	plants
MA0973	1	CDF2	""	3702	Other C4 zinc finger-type factors	DOF	CORE	PBM	25215497	7995527	plants
MA0974	2	CDF3	""	3702	Other C4 zinc finger-type factors	DOF	CORE	DAP-seq	27203113	10758479	plants
MA1268	1	CDF5	""	3702	Other C4 zinc finger-type factors	DOF	CORE	DAP-seq	27203113	10758479	plants
UN0275	1	CEG01538.1	""	70448	C2H2 zinc finger factors	""	UNVALIDATED	PBM	31133749	""	plants
UN0396	1	CRC	""	3702	Other C4 zinc finger-type factors	YABBY	UNVALIDATED	DAP-seq	27203113	""	plants
MA0975	1	CRF2	""	3702	AP2/EREBP	ERF/DREB	CORE	PBM	25215497	9756931	plants
MA0976	2	CRF4	""	3702	AP2/EREBP	ERF/DREB	CORE	DAP-seq	27203113	9756931	plants
MA1376	1	DEAR3	""	3702	AP2/EREBP	ERF/DREB	CORE	DAP-seq	27203113	24477691	plants
MA1366	1	DF1	""	3702	Tryptophan cluster factors	Trihelix	CORE	DAP-seq	27203113	2255908	plants
MA1192	1	DIV1	""	3702	Tryptophan cluster factors	Myb-related	CORE	DAP-seq	27203113	25215497	plants
MA1279	1	DOF1.5	""	3702	Other C4 zinc finger-type factors	DOF	CORE	DAP-seq	27203113	10758479	plants
MA1275	1	DOF1.6	""	3702	Other C4 zinc finger-type factors	DOF	CORE	DAP-seq	27203113	10758479	plants
MA1277	1	DOF1.7	""	3702	Other C4 zinc finger-type factors	DOF	CORE	DAP-seq	27203113	10758479	plants
MA0981	1	DOF1.8	""	3702	Other C4 zinc finger-type factors	DOF	CORE	PBM	25215497	10758479	plants
MA1272	2	DOF2.2	""	3702	Other C4 zinc finger-type factors	DOF	CORE		ReMap	10758479	plants
MA0982	1	DOF2.4	""	3702	Other C4 zinc finger-type factors	DOF	CORE	PBM	25215497	10758479	plants
MA0977	1	DOF2.5	""	3702	Other C4 zinc finger-type factors	DOF	CORE	PBM	24477691	10758479	plants
MA1270	1	DOF3.2	""	3702	Other C4 zinc finger-type factors	DOF	CORE	DAP-seq	27203113	10758479	plants
MA1278	1	DOF3.4	""	3702	Other C4 zinc finger-type factors	DOF	CORE	DAP-seq	27203113	10758479	plants
MA1276	1	DOF3.5	""	3702	Other C4 zinc finger-type factors	DOF	CORE	DAP-seq	27203113	10758479	plants
MA1274	1	DOF3.6	""	3702	Other C4 zinc finger-type factors	DOF	CORE	DAP-seq	27203113	10758479	plants
MA1273	1	DOF4.2	""	3702	Other C4 zinc finger-type factors	DOF	CORE	DAP-seq	27203113	10758479	plants
MA1747	1	DOF4.3	""	3702	Other C4 zinc finger-type factors	DOF	CORE	DAP-seq	27203113	10758479	plants
MA1269	1	DOF4.5	""	3702	Other C4 zinc finger-type factors	DOF	CORE	DAP-seq	27203113	10758479	plants
MA1281	1	DOF5.1	""	3702	Other C4 zinc finger-type factors	DOF	CORE	DAP-seq	27203113	10758479	plants
MA1071	1	DOF5.3	""	3702	Other C4 zinc finger-type factors	DOF	CORE	PBM	25215497	10758479	plants
MA1280	1	DOF5.4	""	3702	Other C4 zinc finger-type factors	DOF	CORE	DAP-seq	27203113	10758479	plants
MA0983	1	DOF5.6	""	3702	Other C4 zinc finger-type factors	DOF	CORE	PBM	25215497	10758479	plants
MA0984	1	DOF5.7	""	3702	Other C4 zinc finger-type factors	DOF	CORE	PBM	24477691	10758479	plants
MA1267	1	DOF5.8	""	3702	Other C4 zinc finger-type factors	DOF	CORE	DAP-seq	27203113	10758479	plants
MA1338	2	DPBF3	""	3702	Basic leucine zipper factors (bZIP)	Group A	CORE		ReMap	10636868	plants
MA0971	1	DREB1A	""	3702	AP2/EREBP	ERF/DREB	CORE	PBM	25215497	9952441	plants
MA1669	1	DREB1B	""	3702	AP2/EREBP	ERF/DREB	CORE	DAP-seq	27203113	19761621	plants
MA1670	1	DREB1C	""	3702	AP2/EREBP	ERF/DREB	CORE	DAP-seq	27203113	25215497	plants
MA1218	1	DREB1D	""	3702	AP2/EREBP	ERF/DREB	CORE	DAP-seq	27203113	9952441	plants
MA0978	1	DREB1E	""	3702	AP2/EREBP	ERF/DREB	CORE	PBM	24477691	18643985	plants
MA1748	1	DREB1F	""	3702	AP2/EREBP	ERF/DREB	CORE	PBM	26103993	18643985	plants
MA1032	1	DREB1G	""	39947	AP2/EREBP	ERF/DREB	CORE	PBM	25215497	15319480	plants
MA1258	1	DREB2A	""	3702	AP2/EREBP	ERF/DREB	CORE	DAP-seq	27203113	9952441	plants
MA0986	1	DREB2C	""	3702	AP2/EREBP	ERF/DREB	CORE	PBM	24477691	23868510	plants
MA1250	1	DREB2D	""	3702	AP2/EREBP	ERF/DREB	CORE	DAP-seq	27203113	15319480	plants
MA1243	1	DREB2E	""	3702	AP2/EREBP	ERF/DREB	CORE	DAP-seq	27203113	9952441	plants
MA1242	1	DREB2F	""	3702	AP2/EREBP	ERF/DREB	CORE	DAP-seq	27203113	15319480	plants
MA1226	1	DREB2G	""	3702	AP2/EREBP	ERF/DREB	CORE	DAP-seq	27203113	15319480	plants
MA0580	1	DYT1	""	3702	Basic helix-loop-helix factors (bHLH)	""	CORE	SELEX		22775442	plants
MA0020	1	Dof2	""	4577	Other C4 zinc finger-type factors	DOF	CORE	SELEX		10074718	plants
MA0021	1	Dof3	""	4577	Other C4 zinc finger-type factors	DOF	CORE	SELEX		10074718	plants
MA1414	1	E2FA	""	3702	Fork head/winged helix factors	E2F	CORE	ChIP-seq	24453163	27203113	plants
MA1749	1	E2FC	""	3702	Fork head/winged helix factors	E2F	CORE	DAP-seq	27203113	16126853	plants
MA1732	1	E2FD	""	3702	Fork head/winged helix factors	E2F	CORE	DAP-seq	27203113	16126853	plants
MA1750	1	E2FE	""	3702	Fork head/winged helix factors	E2F	CORE	DAP-seq	27203113	16126853	plants
UN0397	1	EDF3	""	3702	B3	RAV	UNVALIDATED	PBM	25215497	""	plants
MA1167	1	EFM	""	3702	Tryptophan cluster factors	GARP_G2-like	CORE	DAP-seq	27203113	25215497	plants
UN0362	1	EICBP.B	""	3702	CAMTA	""	UNVALIDATED	DAP-seq	27203113	""	plants
MA1751	1	EIL3	""	3702	""	EIL	CORE	DAP-seq	27203113	28119721	plants
MA1813	1	EIL4	""	4081	EIL	""	CORE	ChIP-seq	30250279	15811366	plants
UN0398	1	ENY	""	3702	C2H2 zinc finger factors	""	UNVALIDATED	DAP-seq	27203113	""	plants
MA1236	1	ERF003	""	3702	AP2/EREBP	ERF/DREB	CORE	DAP-seq	27203113	9756931	plants
MA0979	1	ERF008	""	3702	AP2/EREBP	ERF/DREB	CORE	PBM	24477691	15319480	plants
MA2011	1	ERF010	""	3702	AP2/EREBP	ERF/DREB	CORE		ReMap	15319480	plants
MA1219	2	ERF011	""	3702	AP2/EREBP	ERF/DREB	CORE		ReMap	15319480::9952441	plants
MA1248	1	ERF012	""	3702	AP2/EREBP	ERF/DREB	CORE	DAP-seq	27203113	9952441	plants
MA1260	1	ERF013	""	3702	AP2/EREBP	ERF/DREB	CORE	DAP-seq	27203113	15319480	plants
MA1222	1	ERF014	""	3702	AP2/EREBP	ERF/DREB	CORE	DAP-seq	27203113	15319480	plants
MA1265	2	ERF015	""	3702	AP2/EREBP	ERF/DREB	CORE	DAP-seq	27203113	15319480	plants
MA1234	1	ERF017	""	3702	AP2/EREBP	ERF/DREB	CORE	DAP-seq	27203113	15319480	plants
MA1048	1	ERF018	""	3702	AP2/EREBP	ERF/DREB	CORE	PBM	24477691	15319480	plants
MA1424	1	ERF019	""	3702	AP2/EREBP	ERF/DREB	CORE	DAP-seq	27203113	31133749	plants
MA1233	2	ERF021	""	3702	AP2/EREBP	ERF/DREB	CORE	DAP-seq	27203113	15319480	plants
MA1259	1	ERF023	""	3702	AP2/EREBP	ERF/DREB	CORE	DAP-seq	27203113	15319480	plants
MA2012	1	ERF023	""	3702	AP2/EREBP	ERF/DREB	CORE		ReMap	15319480	plants
MA1752	1	ERF025	""	3702	AP2/EREBP	ERF/DREB	CORE	DAP-seq	27203113	15319480	plants
MA1227	2	ERF027	""	3702	AP2/EREBP	ERF/DREB	CORE	DAP-seq	27203113	15319480	plants
MA1229	1	ERF034	""	3702	AP2/EREBP	ERF/DREB	CORE	DAP-seq	27203113	15319480	plants
MA1223	1	ERF035	""	3702	AP2/EREBP	ERF/DREB	CORE	DAP-seq	27203113	15319480	plants
MA1253	1	ERF036	""	3702	AP2/EREBP	ERF/DREB	CORE	DAP-seq	27203113	15319480	plants
MA1230	1	ERF037	""	3702	AP2/EREBP	ERF/DREB	CORE	DAP-seq	27203113	15319480	plants
MA1238	2	ERF038	""	3702	AP2/EREBP	ERF/DREB	CORE	DAP-seq	27203113	15319480	plants
MA0995	2	ERF039	""	3702	AP2/EREBP	ERF/DREB	CORE	DAP-seq	27203113	9756931	plants
MA1241	1	ERF043	""	3702	AP2/EREBP	ERF/DREB	CORE	DAP-seq	27203113	15319480	plants
MA1232	1	ERF054	""	3702	AP2/EREBP	ERF/DREB	CORE	DAP-seq	27203113	15319480	plants
MA1263	1	ERF055	""	3702	AP2/EREBP	ERF/DREB	CORE	DAP-seq	27203113	15319480	plants
MA1753	1	ERF057	""	3702	AP2/EREBP	ERF/DREB	CORE	DAP-seq	27203113	9756931	plants
MA0997	1	ERF069	""	3702	AP2/EREBP	ERF/DREB	CORE	PBM	25215497	9756931	plants
MA1754	1	ERF073	""	3702	AP2/EREBP	ERF/DREB	CORE	DAP-seq	27203113	9756931	plants
MA1252	1	ERF086	""	3702	AP2/EREBP	ERF/DREB	CORE	DAP-seq	27203113	9756931	plants
MA1247	1	ERF087	""	3702	AP2/EREBP	ERF/DREB	CORE	DAP-seq	27203113	9756931	plants
MA1228	1	ERF091	""	3702	AP2/EREBP	ERF/DREB	CORE	DAP-seq	27203113	9756931	plants
MA1049	1	ERF094	""	3702	AP2/EREBP	ERF/DREB	CORE	PBM	25215497	15319480	plants
MA1264	1	ERF095	""	3702	AP2/EREBP	ERF/DREB	CORE	DAP-seq	27203113	9756931	plants
MA0998	1	ERF096	""	3702	AP2/EREBP	ERF/DREB	CORE	PBM	25215497	9756931	plants
MA1240	1	ERF10	""	3702	AP2/EREBP	ERF/DREB	CORE	DAP-seq	27203113	9756931	plants
MA1239	1	ERF104	""	3702	AP2/EREBP	ERF/DREB	CORE	DAP-seq	27203113	9756931	plants
MA1000	2	ERF105	""	3702	AP2/EREBP	ERF/DREB	CORE	DAP-seq	27203113	9756931	plants
MA1053	1	ERF109	""	3702	AP2/EREBP	ERF/DREB	CORE	PBM	24477691	25882345	plants
MA1001	3	ERF11	""	3702	AP2/EREBP	ERF/DREB	CORE		ReMap	9756931::9756931	plants
MA1245	2	ERF112	""	3702	AP2/EREBP	ERF/DREB	CORE	DAP-seq	27203113	9756931	plants
MA2013	1	ERF115	""	3702	AP2/EREBP	ERF/DREB	CORE		ReMap	9756931	plants
MA1671	1	ERF118	""	3702	AP2/EREBP	ERF/DREB	CORE	DAP-seq	27203113	25220462	plants
MA1261	1	ERF122	""	3702	AP2/EREBP	ERF/DREB	CORE	DAP-seq	27203113	9756931	plants
MA1004	1	ERF13	""	3702	AP2/EREBP	ERF/DREB	CORE	PBM	25215497	9756931	plants
MA1231	2	ERF15	""	3702	AP2/EREBP	ERF/DREB	CORE		ReMap	9756931::9756931	plants
MA0567	1	ERF1B	""	3702	AP2/EREBP	ERF/DREB	CORE	PBM		21284757	plants
MA1262	1	ERF2	""	3702	AP2/EREBP	ERF/DREB	CORE	DAP-seq	27203113	9756931	plants
MA1005	2	ERF3	""	3702	AP2/EREBP	ERF/DREB	CORE	DAP-seq	27203113	9756931	plants
MA0992	2	ERF4	""	3702	AP2/EREBP	ERF/DREB	CORE	DAP-seq	27203113	9756931	plants
MA1225	1	ERF5	""	3702	AP2/EREBP	ERF/DREB	CORE	DAP-seq	27203113	9756931	plants
MA1006	1	ERF6	""	3702	AP2/EREBP	ERF/DREB	CORE	PBM	25215497	9756931	plants
MA0993	1	ERF7	""	3702	AP2/EREBP	ERF/DREB	CORE	PBM	25215497	9756931	plants
MA0994	2	ERF8	""	3702	AP2/EREBP	ERF/DREB	CORE		ReMap	9756931::9756931	plants
MA1257	1	ERF9	""	3702	AP2/EREBP	ERF/DREB	CORE	DAP-seq	27203113	9756931	plants
MA0128	1	EmBP-1	""	4565	Basic leucine zipper factors (bZIP)	Group G	CORE	SELEX		10561063	plants
MA1382	1	FAR1	""	3702	GCM domain factors	WRKY-like_FRS/FRF	CORE	DAP-seq	27203113	18033885	plants
MA0557	1	FHY3	""	3702	GCM domain factors	WRKY-like_FRS/FRF	CORE	ChIP-seq		21803941	plants
MA0558	1	FLC	""	3702	MADS box factors	MIKC	CORE	ChIP-seq		21464308	plants
MA0565	2	FUS3	""	3702	B3	ABI3	CORE	DAP-seq	27203113	23314941	plants
MA1408	1	FaEOBII	""	3747	Tryptophan cluster factors	Myb-related	CORE	PBM	25931522	22197883	plants
MA1373	1	GAF1	""	3702	C2H2 zinc finger factors	""	CORE	DAP-seq	27203113	24039602	plants
MA1013	1	GATA10	""	3702	Other C4 zinc finger-type factors	C4-GATA-related	CORE	PBM	25215497	12504119	plants
MA1014	1	GATA11	""	3702	Other C4 zinc finger-type factors	C4-GATA-related	CORE	PBM	25215497	12504119	plants
MA1015	1	GATA12	""	3702	Other C4 zinc finger-type factors	C4-GATA-related	CORE	PBM	24477691	12504119	plants
MA1325	1	GATA14	""	3702	Other C4 zinc finger-type factors	C4-GATA-related	CORE	DAP-seq	27203113	12504119	plants
MA1016	1	GATA15	""	3702	Other C4 zinc finger-type factors	C4-GATA-related	CORE	PBM	25215497	12504119	plants
MA1323	1	GATA19	""	3702	Other C4 zinc finger-type factors	C4-GATA-related	CORE	DAP-seq	27203113	12504119	plants
MA1324	1	GATA20	""	3702	Other C4 zinc finger-type factors	C4-GATA-related	CORE	DAP-seq	27203113	12504119	plants
MA1755	1	GATA4	""	3702	Other C4 zinc finger-type factors	C4-GATA-related	CORE	PBM	23795294	27203113	plants
MA1396	1	GATA6	""	3702	Other C4 zinc finger-type factors	C4-GATA-related	CORE	DAP-seq	27203113	25215497	plants
MA1017	1	GATA8	""	3702	Other C4 zinc finger-type factors	C4-GATA-related	CORE	PBM	25215497	12504119	plants
MA1018	1	GATA9	""	3702	Other C4 zinc finger-type factors	C4-GATA-related	CORE	PBM	25215497	12504119	plants
MA1672	1	GBF2	""	3702	Basic leucine zipper factors (bZIP)	Group G	CORE	PBM	27203113	25215497	plants
MA1351	2	GBF3	""	3702	Basic leucine zipper factors (bZIP)	Group G	CORE		ReMap	9680995	plants
UN0399	1	GEBP	""	3702	GeBP/Storekeeper	""	UNVALIDATED	PBM	25215497	""	plants
UN0418	1	GLYMA-04G093300	""	3847	Homeo domain factors	PLINC	UNVALIDATED	ChIP-seq	GSE152314	""	plants
MA1808	1	GLYMA-06G314400	""	3847	Basic leucine zipper factors (bZIP)	Group A	CORE	ChIP-seq	31892538	18365246	plants
MA1809	1	GLYMA-07G038400	""	3847	CH3	GRF	CORE	ChIP-seq	GSE152313	29985961	plants
MA1810	1	GLYMA-08G357600	""	3847	B3	ABI3	CORE	ChIP-seq	GSE101649	29660015	plants
UN0420	1	GLYMA-08G357600	""	3847	B3	ABI3	UNVALIDATED	ChIP-seq	GSE101648	""	plants
MA1811	1	GLYMA-13G317000	""	3847	Basic leucine zipper factors (bZIP)	Group A	CORE	ChIP-seq	GSE140701	18365246	plants
UN0421	1	GLYMA-13G317000	""	3847	Basic leucine zipper factors (bZIP)	Group A	UNVALIDATED	ChIP-seq	GSE101663	""	plants
MA1815	1	GRF4	""	4530	CH3	GRF	CORE	ChIP-seq	30111841	24532604	plants
MA2016	1	GRF6	""	3702	C3H zinc finger factors	GRF	CORE		ReMap	22942381	plants
MA1756	1	GRF9	""	3702	CH3	GRF	CORE	DAP-seq	27203113	22942381	plants
MA1020	1	GT-1	""	3702	Tryptophan cluster factors	Trihelix	CORE	PBM	25215497	10437822	plants
MA1208	1	GT-2	""	3702	Tryptophan cluster factors	Trihelix	CORE	DAP-seq	27203113	10437822	plants
MA1207	1	GT-3a	""	3702	Tryptophan cluster factors	Trihelix	CORE	DAP-seq	27203113	10437822	plants
MA1368	2	GT-4	""	3702	Tryptophan cluster factors	Trihelix	CORE	DAP-seq	27203113	20717979	plants
MA1661	1	GTL1	""	3702	Tryptophan cluster factors	Trihelix	CORE	DAP-seq	27203113	21169508	plants
MA0034	1	Gam1	""	4513	Tryptophan cluster factors	Myb	CORE	SELEX		10069063	plants
MA1019	1	Glyma19g26560.1	""	3847	Basic helix-loop-helix factors (bHLH)	TCP	CORE	PBM	25215497	21241251	plants
MA1024	1	HAT1	""	3702	Homeo domain factors	HD-ZIP	CORE	PBM	25215497	8253077	plants
MA1198	1	HAT2	""	3702	Homeo domain factors	HD-ZIP	CORE	DAP-seq	27203113	8253077	plants
MA1210	2	HAT22	""	3702	Homeo domain factors	HD-ZIP	CORE		ReMap	8253077	plants
MA0008	3	HAT5	""	3702	Homeo domain factors	HD-ZIP	CORE		ReMap	8253077	plants
MA1025	1	HBI1	""	3702	Basic helix-loop-helix factors (bHLH)	""	CORE	PBM	25215497	24550223	plants
MA1369	1	HDG1	""	3702	Homeo domain factors	HD-ZIP	CORE	DAP-seq	27203113	25215497	plants
MA0990	1	HDG11	""	3702	Homeo domain factors	HD-ZIP	CORE	PBM	25215497	11247607	plants
MA1757	1	HDG7	""	3702	Homeo domain factors	HD-ZIP	CORE	DAP-seq	27203113	16778018	plants
MA1390	2	HHO2	""	3702	Tryptophan cluster factors	GARP_G2-like	CORE		ReMap	25215497	plants
MA1386	2	HHO3	""	3702	Tryptophan cluster factors	GARP_G2-like	CORE		ReMap	25215497	plants
MA1164	1	HHO5	""	3702	Tryptophan cluster factors	GARP_G2-like	CORE	DAP-seq	27203113	25215497	plants
MA1165	2	HHO6	""	3702	Tryptophan cluster factors	GARP_G2-like	CORE		ReMap	25215497	plants
UN0400	1	HMGB15	""	3702	ARID	""	UNVALIDATED	DAP-seq	27203113	""	plants
UN0401	1	HMGB9	""	3702	ARID	""	UNVALIDATED	DAP-seq	27203113	""	plants
MA1387	1	HRS1	""	3702	Tryptophan cluster factors	GARP_G2-like	CORE	DAP-seq	27203113	25215497	plants
MA2019	1	HSFA1B	""	3702	Heat shock factors	""	CORE		ReMap	27493213	plants
MA1758	1	HSFA1E	""	3702	Heat shock factors	""	CORE	DAP-seq	27203113	8689565	plants
MA1759	1	HSFA4A	""	3702	Heat shock factors	""	CORE	DAP-seq	27203113	8689565	plants
MA1760	1	HSFA6A	""	3702	Heat shock factors	""	CORE	DAP-seq	27203113	8689565	plants
MA1664	2	HSFA6B	""	3702	Heat shock factors	""	CORE		ReMap	27493213::27493213	plants
MA1665	2	HSFB2A	""	3702	Heat shock factors	""	CORE		ReMap	24477691::24477691	plants
MA1666	2	HSFB2B	""	3702	Heat shock factors	""	CORE		ReMap	8689565	plants
MA1761	1	HSFB3	""	3702	Heat shock factors	""	CORE	DAP-seq	27203113	8689565	plants
MA2020	1	HSFB4	""	3702	Heat shock factors	""	CORE		ReMap	8689565	plants
MA1667	2	HSFC1	""	3702	Heat shock factors	""	CORE		ReMap	8689565	plants
MA0551	1	HY5	""	3702	Basic leucine zipper factors (bZIP)	Group H	CORE	ChIP-chip		18287490	plants
MA1425	1	HYH	""	3702	Basic leucine zipper factors (bZIP)	Group H	CORE	PBM	31133749	12023303	plants
UN0402	1	IDD11	""	3702	C2H2 zinc finger factors	""	UNVALIDATED	DAP-seq	27203113	""	plants
MA1371	1	IDD4	""	3702	C2H2 zinc finger factors	""	CORE	DAP-seq	27203113	24039602	plants
MA1370	1	IDD5	""	3702	C2H2 zinc finger factors	""	CORE	DAP-seq	27203113	24039602	plants
MA1160	1	IDD6	""	3702	C2H2 zinc finger factors	""	CORE	DAP-seq	27203113	24039602	plants
MA1374	1	IDD7	""	3702	C2H2 zinc finger factors	""	CORE	DAP-seq	27203113	24039602	plants
UN0403	1	JGL	""	3702	C2H2 zinc finger factors	""	UNVALIDATED	DAP-seq	27203113	""	plants
MA1156	1	JKD	""	3702	C2H2 zinc finger factors	""	CORE	DAP-seq	27203113	24039602	plants
MA2017	1	JUB1	""	3702	GCM domain factors	NAC	CORE		ReMap	22345491	plants
MA1027	1	KAN1	""	3702	Tryptophan cluster factors	GARP_G2-like	CORE	PBM	24477691	24464295	plants
MA1383	1	KAN2	""	3702	Tryptophan cluster factors	GARP_G2-like	CORE	DAP-seq	27203113	25215497	plants
MA1028	1	KAN4	""	3702	Tryptophan cluster factors	GARP_G2-like	CORE	PBM	24477691	20444210	plants
UN0404	1	KHZ1	""	3702	CH3	""	UNVALIDATED	DAP-seq	27203113	""	plants
MA1398	2	KUA1	""	3702	Tryptophan cluster factors	Myb-related	CORE	DAP-seq	27203113	25215497	plants
MA2021	1	LBD13	""	3702	Other C4 zinc finger-type factors	LBD	CORE		ReMap	17913740	plants
MA1673	1	LBD18	""	3702	Other C4 zinc finger-type factors	LBD	CORE	DAP-seq	27203113	29681137	plants
UN0422	1	LEC1-A	""	3847	Heteromeric CCAAT-binding factors	NF-YB	UNVALIDATED	ChIP-seq	28739919	""	plants
UN0423	1	LEC1-A	""	3847	Heteromeric CCAAT-binding factors	NF-YB	UNVALIDATED	ChIP-seq	28739919	""	plants
UN0424	1	LEC1-A	""	3847	Heteromeric CCAAT-binding factors	NF-YB	UNVALIDATED	ChIP-seq	28739919	""	plants
MA0581	1	LEC2	""	3702	B3	ABI3	CORE	SELEX		16492731	plants
MA1246	1	LEP	""	3702	AP2/EREBP	ERF/DREB	CORE	DAP-seq	27203113	9756931	plants
MA0590	1	LFY	""	3702	LEAFY	""	CORE	SELEX-seq		21515819	plants
MA1185	1	LHY	""	3702	Tryptophan cluster factors	Myb-related	CORE	DAP-seq	27203113	25215497	plants
MA2022	1	LOB	""	3702	Other C4 zinc finger-type factors	LBD	CORE		ReMap	17913740	plants
MA1363	1	LRL2	""	3702	Basic helix-loop-helix factors (bHLH)	""	CORE	DAP-seq	27203113	21335373	plants
UN0405	1	MGH6.1	""	3702	GCM domain factors	NAC	UNVALIDATED	DAP-seq	27203113	""	plants
MA1158	1	MGP	""	3702	C2H2 zinc finger factors	""	CORE	DAP-seq	27203113	24039602	plants
MA0053	1	MNB1A	""	4577	Other C4 zinc finger-type factors	DOF	CORE	SELEX		10074718	plants
MA1179	1	MYB1	""	3702	Tryptophan cluster factors	Myb	CORE	DAP-seq	27203113	25215497	plants
MA1762	1	MYB10	""	3702	Tryptophan cluster factors	Myb	CORE	DAP-seq	27203113	26484765	plants
MA1173	1	MYB101	""	3702	Tryptophan cluster factors	Myb	CORE	DAP-seq	27203113	25215497	plants
MA1169	1	MYB105	""	3702	Tryptophan cluster factors	Myb	CORE	DAP-seq	27203113	25215497	plants
MA2007	1	MYB107	""	3702	Tryptophan cluster factors	Myb	CORE	DAP-seq	27203113	9628022	plants
MA2026	1	MYB108	""	3702	Tryptophan cluster factors	Myb	CORE		ReMap	26484765	plants
MA1036	1	MYB111	""	3702	Tryptophan cluster factors	Myb	CORE	PBM	24477691	22197883	plants
MA1181	1	MYB113	""	3702	Tryptophan cluster factors	Myb	CORE	DAP-seq	27203113	25215497	plants
MA1764	1	MYB116	""	3702	Tryptophan cluster factors	Myb	CORE	DAP-seq	27203113	22197883	plants
MA1170	1	MYB118	""	3702	Tryptophan cluster factors	Myb	CORE	DAP-seq	27203113	25215497	plants
MA1176	1	MYB119	""	3702	Tryptophan cluster factors	Myb	CORE	DAP-seq	27203113	25215497	plants
MA1765	1	MYB121	""	3702	Tryptophan cluster factors	Myb	CORE	DAP-seq	27203113	22197883	plants
MA1426	1	MYB124	""	3702	Tryptophan cluster factors	Myb	CORE	PBM	31133749	20675570	plants
MA2041	1	MYB13	""	3702	Tryptophan cluster factors	Myb	CORE		ReMap	19122102	plants
MA0574	1	MYB15	""	3702	Tryptophan cluster factors	Myb	CORE	SELEX		9628022	plants
MA1766	1	MYB17	""	3702	Tryptophan cluster factors	Myb	CORE	DAP-seq	27203113	26484765	plants
MA1767	1	MYB23	""	3702	Tryptophan cluster factors	Myb	CORE	DAP-seq	27203113	26484765	plants
MA1037	1	MYB24	""	3702	Tryptophan cluster factors	Myb	CORE	PBM	25215497	22197883	plants
MA1292	1	MYB27	""	3702	Tryptophan cluster factors	Myb	CORE	DAP-seq	27203113	22197883	plants
MA1038	1	MYB3	""	3702	Tryptophan cluster factors	Myb	CORE	PBM	25215497	22197883	plants
MA1768	1	MYB30	""	3702	Tryptophan cluster factors	Myb	CORE	DAP-seq	27203113	26484765	plants
MA1391	2	MYB33	""	3702	Tryptophan cluster factors	Myb	CORE	DAP-seq	27203113	25215497	plants
MA1769	1	MYB39	""	3702	Tryptophan cluster factors	Myb	CORE	DAP-seq	27203113	26484765	plants
MA1178	2	MYB3R1	""	3702	Tryptophan cluster factors	Myb	CORE		ReMap	25215497::25215497	plants
MA1180	1	MYB3R4	""	3702	Tryptophan cluster factors	Myb	CORE	DAP-seq	27203113	25215497	plants
MA1172	1	MYB3R5	""	3702	Tryptophan cluster factors	Myb	CORE	DAP-seq	27203113	25215497	plants
MA1039	1	MYB4	""	3702	Tryptophan cluster factors	Myb	CORE	PBM	25215497	22197883	plants
MA1770	1	MYB40	""	3702	Tryptophan cluster factors	Myb	CORE	DAP-seq	27203113	26484765	plants
MA1771	1	MYB41	""	3702	Tryptophan cluster factors	Myb	CORE	DAP-seq	27203113	26484765	plants
MA1772	1	MYB43	""	3702	Tryptophan cluster factors	Myb	CORE	DAP-seq	27203113	26484765	plants
MA2027	1	MYB44	""	3702	Tryptophan cluster factors	Myb	CORE		ReMap	25220462	plants
MA1040	1	MYB46	""	3702	Tryptophan cluster factors	Myb	CORE	PBM	24477691	22197883	plants
MA2028	1	MYB49	""	3702	Tryptophan cluster factors	Myb	CORE		ReMap	26484765	plants
MA1773	1	MYB51	""	3702	Tryptophan cluster factors	Myb	CORE	DAP-seq	27203113	26484765	plants
MA1171	1	MYB52	""	3702	Tryptophan cluster factors	Myb	CORE	DAP-seq	27203113	25215497	plants
MA1041	1	MYB55	""	3702	Tryptophan cluster factors	Myb	CORE	PBM	24477691	22197883	plants
MA1174	1	MYB56	""	3702	Tryptophan cluster factors	Myb	CORE	DAP-seq	27203113	25215497	plants
MA1293	1	MYB57	""	3702	Tryptophan cluster factors	Myb	CORE	DAP-seq	27203113	22197883	plants
MA2042	1	MYB58	""	3702	Tryptophan cluster factors	Myb	CORE		ReMap	26484765	plants
MA1042	1	MYB59	""	3702	Tryptophan cluster factors	Myb	CORE	PBM	24477691	22197883	plants
MA1774	1	MYB60	""	3702	Tryptophan cluster factors	Myb	CORE	DAP-seq	27203113	26484765	plants
MA1775	1	MYB61	""	3702	Tryptophan cluster factors	Myb	CORE	DAP-seq	27203113	26484765	plants
MA1294	1	MYB62	""	3702	Tryptophan cluster factors	Myb	CORE	DAP-seq	27203113	22197883	plants
MA2024	1	MYB63	""	3702	Tryptophan cluster factors	Myb	CORE		ReMap	19122102	plants
MA1177	1	MYB65	""	3702	Tryptophan cluster factors	Myb	CORE	DAP-seq	27203113	25215497	plants
MA1776	1	MYB67	""	3702	Tryptophan cluster factors	Myb	CORE	DAP-seq	27203113	26484765	plants
MA1393	2	MYB70	""	3702	Tryptophan cluster factors	Myb	CORE	DAP-seq	27203113	25215497	plants
MA1394	2	MYB73	""	3702	Tryptophan cluster factors	Myb	CORE	DAP-seq	27203113	25215497	plants
MA1777	1	MYB74	""	3702	Tryptophan cluster factors	Myb	CORE	DAP-seq	27203113	26484765	plants
MA0575	1	MYB77	""	3702	Tryptophan cluster factors	Myb	CORE	SELEX		9628022	plants
MA1778	1	MYB80	""	3702	Tryptophan cluster factors	Myb	CORE	DAP-seq	27203113	26484765	plants
MA1175	1	MYB81	""	3702	Tryptophan cluster factors	Myb	CORE	DAP-seq	27203113	25215497	plants
MA1779	1	MYB83	""	3702	Tryptophan cluster factors	Myb	CORE	DAP-seq	27203113	25220462	plants
MA2029	1	MYB88	""	3702	Tryptophan cluster factors	Myb	CORE		ReMap	26484765	plants
MA1780	1	MYB92	""	3702	Tryptophan cluster factors	Myb	CORE	DAP-seq	27203113	9628022	plants
MA2025	1	MYB93	""	3702	Tryptophan cluster factors	Myb	CORE		ReMap	32246506	plants
MA1781	1	MYB94	""	3702	Tryptophan cluster factors	Myb	CORE	DAP-seq	27203113	26484765	plants
MA2030	1	MYB96	""	3702	Tryptophan cluster factors	Myb	CORE		ReMap	26484765	plants
MA1392	2	MYB98	""	3702	Tryptophan cluster factors	Myb	CORE		ReMap	25215497::25215497	plants
MA2008	1	MYB99	""	3702	Tryptophan cluster factors	Myb	CORE	DAP-seq	27203113	26484765	plants
MA0566	1	MYC2	""	3702	Basic helix-loop-helix factors (bHLH)	""	CORE	PBM		21284757	plants
MA0568	1	MYC3	""	3702	Basic helix-loop-helix factors (bHLH)	""	CORE	PBM		21335373	plants
MA0569	1	MYC4	""	3702	Basic helix-loop-helix factors (bHLH)	""	CORE	PBM		21335373	plants
MA1168	1	MYR2	""	3702	Tryptophan cluster factors	GARP_G2-like	CORE	DAP-seq	27203113	25215497	plants
MA2015	1	NAC002	""	3702	beta-Hairpin exposed by an alpha/beta-scaffold	NAC	CORE		ReMap	24914054	plants
MA2043	1	NAC004	""	3702	GCM domain factors	NAC	CORE		ReMap	24914054	plants
MA1783	1	NAC005	""	3702	GCM domain factors	NAC	CORE	DAP-seq	27203113	24914054	plants
MA2044	1	NAC007	""	3702	GCM domain factors	NAC	CORE		ReMap	20935069	plants
MA2009	1	NAC010	""	3702	GCM domain factors	NAC	CORE		ReMap	20935069	plants
MA1784	1	NAC011	""	3702	GCM domain factors	NAC	CORE	DAP-seq	27203113	24914054	plants
MA1660	1	NAC013	""	3702	GCM domain factors	NAC	CORE	DAP-seq	27203113	24045019	plants
MA2005	1	NAC016	""	3702	GCM domain factors	NAC	CORE		ReMap	24914054	plants
MA1674	2	NAC017	""	3702	GCM domain factors	NAC	CORE		ReMap	24045017::24045017	plants
MA1785	1	NAC018	""	3702	GCM domain factors	NAC	CORE	DAP-seq	27203113	24914054	plants
MA1786	1	NAC019	""	3702	GCM domain factors	NAC	CORE	PBM	24914054	27203113	plants
MA2006	1	NAC020	""	3702	GCM domain factors	NAC	CORE		ReMap	24914054	plants
MA0935	1	NAC025	""	3702	GCM domain factors	NAC	CORE	PBM	25215497	24914054	plants
MA1427	2	NAC028	""	3702	GCM domain factors	NAC	CORE		ReMap	24914054::27203113	plants
MA1675	1	NAC029	""	3702	GCM domain factors	NAC	CORE	DAP-seq	27203113	24477691	plants
MA2045	1	NAC031	""	3702	GCM domain factors	NAC	CORE		ReMap	24914054	plants
MA2046	1	NAC035	""	3702	GCM domain factors	NAC	CORE		ReMap	22345491	plants
MA2047	1	NAC037	""	3702	GCM domain factors	NAC	CORE		ReMap	20935069	plants
MA2033	1	NAC038	""	3702	GCM domain factors	NAC	CORE		ReMap	24914054	plants
MA1045	1	NAC043	""	3702	GCM domain factors	NAC	CORE	PBM	25215497	24914054	plants
MA2048	1	NAC045	""	3702	GCM domain factors	NAC	CORE		ReMap	24914054	plants
MA0936	1	NAC046	""	3702	GCM domain factors	NAC	CORE	PBM	24477691	24914054	plants
MA1787	1	NAC047	""	3702	GCM domain factors	NAC	CORE	DAP-seq	27203113	24914054	plants
MA1663	2	NAC050	""	3702	GCM domain factors	NAC	CORE		ReMap	24914054::26617990	plants
MA2049	1	NAC053	""	3702	GCM domain factors	NAC	CORE		ReMap	24914054	plants
MA1788	1	NAC054	""	3702	GCM domain factors	NAC	CORE	DAP-seq	27203113	24914054	plants
MA0937	1	NAC055	""	3702	GCM domain factors	NAC	CORE	PBM	24477691	24914054	plants
MA2034	1	NAC057	""	3702	GCM domain factors	NAC	CORE		ReMap	24914054	plants
MA0938	2	NAC058	""	3702	GCM domain factors	NAC	CORE		ReMap	24914054::24914054	plants
MA1676	2	NAC062	""	3702	GCM domain factors	NAC	CORE		ReMap	24914054::24914054	plants
MA1789	1	NAC071	""	3702	GCM domain factors	NAC	CORE	DAP-seq	27203113	24914054	plants
MA1790	1	NAC073	""	3702	GCM domain factors	NAC	CORE	DAP-seq	27203113	20935069	plants
MA2035	1	NAC075	""	3702	GCM domain factors	NAC	CORE		ReMap	20935069	plants
MA2036	1	NAC076	""	3702	GCM domain factors	NAC	CORE		ReMap	20935069	plants
MA1677	1	NAC078	""	3702	GCM domain factors	NAC	CORE	DAP-seq	27203113	25215497	plants
MA0939	1	NAC079	""	3702	GCM domain factors	NAC	CORE	PBM	25215497	24914054	plants
MA1043	1	NAC083	""	3702	GCM domain factors	NAC	CORE	PBM	25215497	24914054	plants
MA1791	1	NAC087	""	3702	GCM domain factors	NAC	CORE	DAP-seq	27203113	24914054	plants
MA2037	1	NAC096	""	3702	GCM domain factors	NAC	CORE		ReMap	24914054	plants
MA1792	1	NAC098	""	3702	GCM domain factors	NAC	CORE	DAP-seq	27203113	24914054	plants
MA2050	1	NAC101	""	3702	GCM domain factors	NAC	CORE		ReMap	24914054	plants
MA2038	1	NAC103	""	3702	GCM domain factors	NAC	CORE		ReMap	24914054	plants
MA2053	1	NAC105	""	3702	GCM domain factors	NAC	CORE		ReMap	24914054	plants
MA2051	1	NAC68	""	3702	GCM domain factors	NAC	CORE		ReMap	24914054	plants
MA2018	1	NAC69	""	3702	GCM domain factors	NAC	CORE		ReMap	24914054	plants
MA1044	1	NAC92	""	3702	GCM domain factors	NAC	CORE	PBM	25215497	24914054	plants
UN0427	1	NF-YB1	""	4530	Heteromeric CCAAT-binding factors	NF-YB	UNVALIDATED	ChIP-seq	27803124	""	plants
UN0689	1	NFYB2	""	3702	Heteromeric CCAAT-binding factors	NF-YB	UNVALIDATED		ReMap	""	plants
UN0690	1	NFYC2	""	3702	Heteromeric CCAAT-binding factors	NF-YC	UNVALIDATED		ReMap	""	plants
UN0687	1	NGA4	""	3702	B3	RAV	UNVALIDATED		ReMap	""	plants
MA1793	1	NID1	""	3702	Tryptophan cluster factors	Myb-related	CORE	PBM	25215497	27203113	plants
UN0406	1	NLP4	""	3702	RWP-RK	""	UNVALIDATED	DAP-seq	27203113	""	plants
MA1794	1	NLP7	""	3702	RWP-RK	""	CORE	DAP-seq	27203113	23511481	plants
MA1678	2	NTL8	""	3702	GCM domain factors	NAC	CORE		ReMap	24914054::24914054	plants
MA1046	1	NTL9	""	3702	GCM domain factors	NAC	CORE	DAP-seq	25215497	24914054	plants
MA1157	1	NUC	""	3702	C2H2 zinc finger factors	""	CORE	DAP-seq	27203113	24039602	plants
MA1816	1	O11	""	4577	Basic helix-loop-helix factors (bHLH)	""	CORE	ChIP-seq	29436476	7742856	plants
MA1417	1	O2	""	4577	Basic leucine zipper factors (bZIP)	Group C	CORE	ChIP-seq	25691733	25215497	plants
MA1033	1	OJ1058_F05.8	""	39947	Basic leucine zipper factors (bZIP)	Group A	CORE	PBM	25215497	8487298	plants
MA1031	1	OJ1581_H09.2	""	39947	Basic helix-loop-helix factors (bHLH)	TCP	CORE	PBM	25215497	21241251	plants
UN0428	1	ONAC127	""	4530	GCM domain factors	NAC	UNVALIDATED	ChIP-seq	33476364	""	plants
UN0429	1	ONAC127	""	4530	GCM domain factors	NAC	UNVALIDATED	ChIP-seq	33476364	""	plants
UN0430	1	ONAC127	""	4530	GCM domain factors	NAC	UNVALIDATED	ChIP-seq	33476364	""	plants
MA1034	1	Os05g0497200	""	39947	AP2/EREBP	ERF/DREB	CORE	PBM	25215497	15319480	plants
MA1050	1	OsI_08196	""	39946	Basic helix-loop-helix factors (bHLH)	TCP	CORE	PBM	25215497	21241251	plants
MA1409	1	OsRR22	""	4530	Tryptophan cluster factors	GARP_ARR-B	CORE	PBM	27931185	12610214	plants
MA1030	1	P0510F09.23	""	39947	Tryptophan cluster factors	Myb	CORE	PBM	25215497	22197883	plants
MA0064	1	PBF	""	4577	Other C4 zinc finger-type factors	DOF	CORE	SELEX		10074718	plants
MA0127	1	PEND	""	3888	""	""	CORE	SELEX		9973626	plants
MA1389	1	PHL1	""	3702	Tryptophan cluster factors	GARP_G2-like	CORE	DAP-seq	27203113	25215497	plants
MA1163	2	PHL11	""	3702	Tryptophan cluster factors	GARP_G2-like	CORE		ReMap	25215497::25215497	plants
MA1166	1	PHL12	""	3702	Tryptophan cluster factors	GARP_G2-like	CORE	DAP-seq	27203113	25215497	plants
MA1388	1	PHL2	""	3702	Tryptophan cluster factors	GARP_G2-like	CORE	DAP-seq	27203113	25215497	plants
UN0080	1	PHL3	""	3702	Tryptophan cluster factors	GARP_G2-like	UNVALIDATED	PBM	31133749	26586833	plants
MA2023	1	PHL4	""	3702	Tryptophan cluster factors	GARP_G2-like	CORE		ReMap	30327661	plants
MA1384	1	PHL7	""	3702	Tryptophan cluster factors	GARP_G2-like	CORE	DAP-seq	27203113	25215497	plants
MA0987	1	PHYPADRAFT_140773	""	3218	Other C4 zinc finger-type factors	DOF	CORE	PBM	25215497	10758479	plants
MA0988	1	PHYPADRAFT_143875	""	3218	Basic helix-loop-helix factors (bHLH)	""	CORE	PBM	25215497	21335373	plants
MA0989	1	PHYPADRAFT_153324	""	3218	Other C4 zinc finger-type factors	DOF	CORE	PBM	25215497	10758479	plants
MA1007	1	PHYPADRAFT_173530	""	3218	AP2/EREBP	ERF/DREB	CORE	PBM	25215497	15319480	plants
MA1008	1	PHYPADRAFT_182268	""	3218	AP2/EREBP	ERF/DREB	CORE	PBM	25215497	15319480	plants
MA1023	1	PHYPADRAFT_28324	""	3218	AP2/EREBP	ERF/DREB	CORE	PBM	25215497	15319480	plants
MA1022	1	PHYPADRAFT_38837	""	3218	Other C4 zinc finger-type factors	DOF	CORE	PBM	25215497	10758479	plants
MA1021	1	PHYPADRAFT_48267	""	3218	Basic helix-loop-helix factors (bHLH)	""	CORE	PBM	25215497	21335373	plants
MA1010	1	PHYPADRAFT_64121	""	3218	AP2/EREBP	ERF/DREB	CORE	PBM	25215497	15319480	plants
MA1011	1	PHYPADRAFT_72483	""	3218	Basic helix-loop-helix factors (bHLH)	""	CORE	PBM	25215497	21335373	plants
MA0559	1	PI	""	3702	MADS box factors	MIKC	CORE	ChIP-seq		8774892	plants
MA0552	1	PIF1	""	3702	Basic helix-loop-helix factors (bHLH)	""	CORE	ChIP-chip		15448264	plants
MA0560	1	PIF3	""	3702	Basic helix-loop-helix factors (bHLH)	""	CORE	ChIP-seq		10797009	plants
MA0561	1	PIF4	""	3702	Basic helix-loop-helix factors (bHLH)	""	CORE	ChIP-seq		22536829	plants
MA0562	1	PIF5	""	3702	Basic helix-loop-helix factors (bHLH)	""	CORE	ChIP-seq		22536829	plants
UN0001	1	PK00315.1	""	3483	Basic leucine zipper factors (bZIP)	""	UNVALIDATED	PBM	31133749	""	plants
UN0002	1	PK01144.1	""	3483	Other C4 zinc finger-type factors	DOF	UNVALIDATED	PBM	31133749	""	plants
UN0003	1	PK01630.1	""	3483	Basic helix-loop-helix factors (bHLH)	""	UNVALIDATED	PBM	31133749	""	plants
UN0005	1	PK03025.1	""	3483	AP2/ERF domain	""	UNVALIDATED	PBM	31133749	""	plants
UN0007	1	PK03929.1	""	3483	Other C4 zinc finger-type factors	DOF	UNVALIDATED	PBM	31133749	""	plants
UN0008	1	PK04914.1	""	3483	Tryptophan cluster factors	Trihelix	UNVALIDATED	PBM	31133749	""	plants
UN0010	1	PK05432.1	""	3483	GCM domain factors	WRKY	UNVALIDATED	PBM	31133749	""	plants
UN0011	1	PK05451.1	""	3483	Basic helix-loop-helix factors (bHLH)	""	UNVALIDATED	PBM	31133749	""	plants
UN0013	1	PK05732.1	""	3483	Tryptophan cluster factors	GARP_G2-like	UNVALIDATED	PBM	31133749	""	plants
UN0015	1	PK06517.1	""	3483	Basic helix-loop-helix factors (bHLH)	""	UNVALIDATED	PBM	31133749	""	plants
UN0016	1	PK07031.1	""	3483	Other C4 zinc finger-type factors	DOF	UNVALIDATED	PBM	31133749	""	plants
UN0017	1	PK07402.1	""	3483	AP2/ERF domain	""	UNVALIDATED	PBM	31133749	""	plants
UN0019	1	PK07858.1	""	3483	Basic helix-loop-helix factors (bHLH)	""	UNVALIDATED	PBM	31133749	""	plants
UN0021	1	PK08602.1	""	3483	AP2/ERF domain	""	UNVALIDATED	PBM	31133749	""	plants
UN0022	1	PK09021.1	""	3483	Basic leucine zipper factors (bZIP)	Group D	UNVALIDATED	PBM	31133749	""	plants
UN0025	1	PK09702.1	""	3483	Basic helix-loop-helix factors (bHLH)	""	UNVALIDATED	PBM	31133749	""	plants
UN0026	1	PK10344.1	""	3483	Basic helix-loop-helix factors (bHLH)	TCP	UNVALIDATED	PBM	31133749	""	plants
UN0027	1	PK10955.1	""	3483	Other C4 zinc finger-type factors	DOF	UNVALIDATED	PBM	31133749	""	plants
UN0029	1	PK12011.1	""	3483	Tryptophan cluster factors	Myb	UNVALIDATED	PBM	31133749	""	plants
UN0030	1	PK12240.1	""	3483	Basic helix-loop-helix factors (bHLH)	TCP	UNVALIDATED	PBM	31133749	""	plants
UN0032	1	PK13314.1	""	3483	Basic helix-loop-helix factors (bHLH)	TCP	UNVALIDATED	PBM	31133749	""	plants
UN0034	1	PK14653.1	""	3483	Basic helix-loop-helix factors (bHLH)	TCP	UNVALIDATED	PBM	31133749	""	plants
UN0036	1	PK15337.1	""	3483	Other C4 zinc finger-type factors	DOF	UNVALIDATED	PBM	31133749	""	plants
UN0037	1	PK15505.1	""	3483	Basic helix-loop-helix factors (bHLH)	""	UNVALIDATED	PBM	31133749	""	plants
UN0038	1	PK16335.1	""	3483	Basic leucine zipper factors (bZIP)	""	UNVALIDATED	PBM	31133749	""	plants
UN0039	1	PK16340.1	""	3483	Other C4 zinc finger-type factors	DOF	UNVALIDATED	PBM	31133749	""	plants
UN0040	1	PK17878.1	""	3483	AP2/ERF domain	""	UNVALIDATED	PBM	31133749	""	plants
UN0041	1	PK18009.1	""	3483	Basic leucine zipper factors (bZIP)	Group A	UNVALIDATED	PBM	31133749	""	plants
UN0042	1	PK18401.1	""	3483	Basic helix-loop-helix factors (bHLH)	""	UNVALIDATED	PBM	31133749	""	plants
UN0043	1	PK18474.1	""	3483	Basic helix-loop-helix factors (bHLH)	""	UNVALIDATED	PBM	31133749	""	plants
UN0044	1	PK19166.1	""	3483	Homeo domain factors	""	UNVALIDATED	PBM	31133749	""	plants
UN0046	1	PK19363.1	""	3483	AP2/ERF domain	""	UNVALIDATED	PBM	31133749	""	plants
UN0047	1	PK19621.1	""	3483	Tryptophan cluster factors	Myb	UNVALIDATED	PBM	31133749	""	plants
UN0048	1	PK19717.1	""	3483	Basic helix-loop-helix factors (bHLH)	TCP	UNVALIDATED	PBM	31133749	""	plants
UN0049	1	PK20225.1	""	3483	Basic helix-loop-helix factors (bHLH)	""	UNVALIDATED	PBM	31133749	""	plants
UN0050	1	PK20317.1	""	3483	Other C4 zinc finger-type factors	DOF	UNVALIDATED	PBM	31133749	""	plants
UN0051	1	PK20392.1	""	3483	Homeo domain factors	HD-ZIP	UNVALIDATED	PBM	31133749	""	plants
UN0054	1	PK20543.1	""	3483	Tryptophan cluster factors	Trihelix	UNVALIDATED	PBM	31133749	""	plants
UN0057	1	PK21166.1	""	3483	Tryptophan cluster factors	Myb	UNVALIDATED	PBM	31133749	""	plants
UN0059	1	PK23009.1	""	3483	Other C4 zinc finger-type factors	DOF	UNVALIDATED	PBM	31133749	""	plants
UN0060	1	PK23763.1	""	3483	Other C4 zinc finger-type factors	DOF	UNVALIDATED	PBM	31133749	""	plants
UN0061	1	PK23964.1	""	3483	Basic leucine zipper factors (bZIP)	""	UNVALIDATED	PBM	31133749	""	plants
UN0063	1	PK24205.1	""	3483	Basic leucine zipper factors (bZIP)	Group A	UNVALIDATED	PBM	31133749	""	plants
UN0064	1	PK24580.1	""	3483	AP2/ERF domain	""	UNVALIDATED	PBM	31133749	""	plants
UN0067	1	PK25034.1	""	3483	Homeo domain factors	TALE-type HD	UNVALIDATED	PBM	31133749	""	plants
UN0068	1	PK25870.1	""	3483	GCM domain factors	WRKY	UNVALIDATED	PBM	31133749	""	plants
UN0070	1	PK26523.1	""	3483	Tryptophan cluster factors	GARP_G2-like	UNVALIDATED	PBM	31133749	""	plants
UN0072	1	PK27085.1	""	3483	GCM domain factors	NAC	UNVALIDATED	PBM	31133749	""	plants
UN0073	1	PK27109.1	""	3483	Basic leucine zipper factors (bZIP)	""	UNVALIDATED	PBM	31133749	""	plants
UN0074	1	PK27149.1	""	3483	Basic leucine zipper factors (bZIP)	Group S	UNVALIDATED	PBM	31133749	""	plants
UN0076	1	PK27683.1	""	3483	CPP	""	UNVALIDATED	PBM	31133749	""	plants
UN0077	1	PK27693.1	""	3483	Tryptophan cluster factors	Myb	UNVALIDATED	PBM	31133749	""	plants
UN0078	1	PK28187.1	""	3483	Tryptophan cluster factors	Myb	UNVALIDATED	PBM	31133749	""	plants
MA1377	1	PLT1	""	3702	AP2/EREBP	AP2	CORE	DAP-seq	27203113	11058102	plants
UN0276	1	PNRC2	""	70448	Nuclear receptors with C4 zinc fingers	""	UNVALIDATED	PBM	31133749	""	plants
MA0955	1	POPTR_0002s00440g	""	3694	C2H2 zinc finger factors	SBP	CORE	PBM	25215497	16554053	plants
MA1416	1	RAMOSA1	""	4577	C2H2 zinc finger factors	""	CORE	ChIP-seq	24307553	16041362	plants
MA1679	1	RAP2-1	""	3702	AP2/EREBP	ERF/DREB	CORE	DAP-seq	27203113	20230648	plants
MA0980	2	RAP2-10	""	3702	AP2/EREBP	ERF/DREB	CORE	DAP-seq	27203113	24477691	plants
MA1266	1	RAP2-11	""	3702	AP2/EREBP	ERF/DREB	CORE	DAP-seq	27203113	9756931	plants
MA1256	1	RAP2-12	""	3702	AP2/EREBP	ERF/DREB	CORE	DAP-seq	27203113	9756931	plants
MA1051	1	RAP2-3	""	3702	AP2/EREBP	ERF/DREB	CORE	PBM	24477691	15319480	plants
MA1795	1	RAP2-4	""	3702	AP2/EREBP	ERF/DREB	CORE	PBM	25215497	15319480	plants
MA1221	1	RAP2-6	""	3702	AP2/EREBP	ERF/DREB	CORE	DAP-seq	27203113	9756931	plants
MA1796	1	RAP2-7	""	3702	AP2/EREBP	AP2	CORE	PBM	24477691	26410299	plants
MA1251	1	RAP2-9	""	3702	AP2/EREBP	ERF/DREB	CORE	DAP-seq	27203113	9952441	plants
MA0582	1	RAV1	""	3702	B3	RAV	CORE	SELEX		9862967	plants
MA0583	1	RAV1	""	3702	B3	RAV	CORE	SELEX		9862967	plants
MA1797	1	RAV2	""	3702	B3	RAV	CORE	PBM	25215497	9862967	plants
MA0576	1	RAX3	""	3702	Tryptophan cluster factors	Myb	CORE	SELEX		9628022	plants
MA1415	1	REF6	""	3702	C2H2 zinc finger factors	""	CORE	ChIP-seq	27111035	27111034	plants
UN0407	1	REM1	""	3702	B3	REM	UNVALIDATED	PBM	24477691	""	plants
UN0408	1	REM21	""	3702	B3	REM	UNVALIDATED	DAP-seq	27203113	""	plants
MA1814	1	RIN	""	4081	MADS box factors	MIKC	CORE	ChIP-seq	30250279	18363783	plants
UN0409	1	RKD2	""	3702	RWP-RK	""	UNVALIDATED	DAP-seq	27203113	""	plants
MA1184	1	RVE1	""	3702	Tryptophan cluster factors	Myb-related	CORE	DAP-seq	27203113	25215497	plants
MA1187	1	RVE4	""	3702	Tryptophan cluster factors	Myb-related	CORE	DAP-seq	27203113	25215497	plants
MA1190	1	RVE5	""	3702	Tryptophan cluster factors	Myb-related	CORE	DAP-seq	27203113	25215497	plants
MA1183	1	RVE6	""	3702	Tryptophan cluster factors	Myb-related	CORE	DAP-seq	27203113	25215497	plants
MA1401	1	RVE7	""	3702	Tryptophan cluster factors	Myb-related	CORE	DAP-seq	27203113	25215497	plants
MA1191	1	RVE7L	""	3702	Tryptophan cluster factors	Myb-related	CORE	DAP-seq	27203113	25215497	plants
MA1182	1	RVE8	""	3702	Tryptophan cluster factors	Myb-related	CORE	DAP-seq	27203113	25215497	plants
UN0379	1	S1FA3	""	3702	S1Fa-like	""	UNVALIDATED	DAP-seq	27203113	""	plants
MA0584	1	SEP1	""	3702	MADS box factors	MIKC	CORE	SELEX		8597661	plants
MA0563	1	SEP3	""	3702	MADS box factors	MIKC	CORE	ChIP-seq		19033361	plants
MA1159	1	SGR5	""	3702	C2H2 zinc finger factors	""	CORE	DAP-seq	27203113	24039602	plants
MA1405	1	SIZF2	""	4081	C2H2 zinc finger factors	""	CORE	PBM	24567191	9421523	plants
MA2010	1	SMB	""	3702	GCM domain factors	NAC	CORE	DAP-seq	27203113	20935069	plants
MA0553	1	SMZ	""	3702	AP2/EREBP	AP2	CORE	ChIP-chip		19582143	plants
MA0554	1	SOC1	""	3702	MADS box factors	MIKC	CORE	ChIP-chip		8774892	plants
MA1379	1	SOL1	""	3702	CPP	""	CORE	DAP-seq	27203113	25215497	plants
MA1055	2	SPL1	""	3702	SBP	""	CORE		ReMap	24477691::16554053	plants
MA1799	1	SPL10	""	3702	C2H2 zinc finger factors	SBP	CORE	PBM	25220462	16554053	plants
MA1056	1	SPL11	""	3702	C2H2 zinc finger factors	SBP	CORE	PBM	25215497	16554053	plants
MA1057	1	SPL12	""	3702	C2H2 zinc finger factors	SBP	CORE	PBM	25215497	16554053	plants
MA1321	1	SPL13A	""	3702	C2H2 zinc finger factors	SBP	CORE	DAP-seq	27203113	16554053	plants
MA0586	2	SPL14	""	3702	C2H2 zinc finger factors	SBP	CORE	DAP-seq	27203113	18302343	plants
MA1320	1	SPL15	""	3702	C2H2 zinc finger factors	SBP	CORE	DAP-seq	27203113	16554053	plants
MA0577	3	SPL3	""	3702	SBP	""	CORE		ReMap	10524240::16554053	plants
MA1058	1	SPL4	""	3702	C2H2 zinc finger factors	SBP	CORE	PBM	25215497	16554053	plants
MA1059	2	SPL5	""	3702	C2H2 zinc finger factors	SBP	CORE	DAP-seq	27203113	16554053	plants
MA1060	1	SPL7	""	3702	C2H2 zinc finger factors	SBP	CORE	PBM	24477691	16554053	plants
MA0578	1	SPL8	""	3702	C2H2 zinc finger factors	SBP	CORE	SELEX		16095614	plants
MA1322	2	SPL9	""	3702	SBP	""	CORE		ReMap	10524240::16554053	plants
MA1061	1	SPT	""	3702	Basic helix-loop-helix factors (bHLH)	""	CORE	PBM	25215497	21335373	plants
MA1681	1	SRM1	""	3702	Tryptophan cluster factors	Myb-related	CORE	DAP-seq	27203113	25215497	plants
UN0410	1	STKL2	""	3702	GeBP/Storekeeper	""	UNVALIDATED	DAP-seq	27203113	""	plants
MA0555	1	SVP	""	3702	MADS box factors	MIKC	CORE	ChIP-chip		8774892	plants
MA1410	1	StBRC1	""	4081	Basic helix-loop-helix factors (bHLH)	TCP	CORE	PBM	26119747	21241251	plants
UN0426	1	TAGL1	""	4081	MADS box factors	MIKC	UNVALIDATED	ChIP-seq	30250279	""	plants
MA1430	1	TB1	""	4530	Basic helix-loop-helix factors (bHLH)	TCP	CORE	PBM	31133749	12000681	plants
MA1284	1	TCP1	""	3702	Basic helix-loop-helix factors (bHLH)	TCP	CORE	DAP-seq	27203113	21241251	plants
MA1282	1	TCP13	""	3702	Basic helix-loop-helix factors (bHLH)	TCP	CORE	DAP-seq	27203113	12000681	plants
MA1283	1	TCP14	""	3702	Basic helix-loop-helix factors (bHLH)	TCP	CORE	DAP-seq	27203113	21241251	plants
MA1062	2	TCP15	""	3702	Basic helix-loop-helix factors (bHLH)	TCP	CORE	DAP-seq	27203113	24477691	plants
MA0587	1	TCP16	""	3702	Basic helix-loop-helix factors (bHLH)	TCP	CORE	SELEX		22074922	plants
MA1290	1	TCP17	""	3702	Basic helix-loop-helix factors (bHLH)	TCP	CORE	DAP-seq	27203113	12000681	plants
MA1063	1	TCP19	""	3702	Basic helix-loop-helix factors (bHLH)	TCP	CORE	PBM	25215497	21241251	plants
MA1064	1	TCP2	""	3702	Basic helix-loop-helix factors (bHLH)	TCP	CORE	PBM	25215497	21241251	plants
MA1065	2	TCP20	""	3702	Basic helix-loop-helix factors (bHLH)	TCP	CORE	DAP-seq	27203113	25215497	plants
MA1287	1	TCP21	""	3702	Basic helix-loop-helix factors (bHLH)	TCP	CORE	DAP-seq	27203113	21241251	plants
MA1288	1	TCP22	""	3702	Basic helix-loop-helix factors (bHLH)	TCP	CORE	DAP-seq	27203113	21241251	plants
MA1066	1	TCP23	""	3702	Basic helix-loop-helix factors (bHLH)	TCP	CORE	PBM	24477691	21241251	plants
MA1286	1	TCP24	""	3702	Basic helix-loop-helix factors (bHLH)	TCP	CORE	DAP-seq	27203113	21241251	plants
MA1289	1	TCP3	""	3702	Basic helix-loop-helix factors (bHLH)	TCP	CORE	DAP-seq	27203113	12000681	plants
MA1035	1	TCP4	""	3702	Basic helix-loop-helix factors (bHLH)	TCP	CORE	PBM	25215497	12000681	plants
MA1067	1	TCP5	""	3702	Basic helix-loop-helix factors (bHLH)	TCP	CORE	PBM	25215497	21241251	plants
MA1291	1	TCP7	""	3702	Basic helix-loop-helix factors (bHLH)	TCP	CORE	DAP-seq	27203113	21241251	plants
MA1428	1	TCP8	""	3702	Basic helix-loop-helix factors (bHLH)	TCP	CORE	PBM	31133749	25702611	plants
MA1285	1	TCP9	""	3702	Basic helix-loop-helix factors (bHLH)	TCP	CORE	DAP-seq	27203113	21241251	plants
MA1162	1	TCX2	""	3702	CPP	""	CORE	DAP-seq	27203113	25215497	plants
MA1682	1	TCX3	""	3702	CPP	""	CORE	DAP-seq	27203113	25215497	plants
UN0411	1	TCX5	""	3702	CPP	""	UNVALIDATED	PBM	25215497	""	plants
MA1380	1	TCX6	""	3702	CPP	""	CORE	DAP-seq	27203113	25215497	plants
MA1800	1	TEM1	""	3702	B3	RAV	CORE	PBM	25215497	9862967	plants
MA1835	1	TFLG2-Zm00001d042777	""	4577	Basic leucine zipper factors (bZIP)	Group D	CORE	ChIP-seq	33037196	8487298	plants
MA0588	1	TGA1	""	3702	Basic leucine zipper factors (bZIP)	Group D	CORE	SELEX		1446171	plants
MA1346	1	TGA10	""	3702	Basic leucine zipper factors (bZIP)	Group D	CORE	DAP-seq	27203113	8487298	plants
MA0129	1	TGA1A	""	4094	Basic leucine zipper factors (bZIP)	Group D	CORE	SELEX		10561063	plants
MA1068	2	TGA2	""	3702	Basic leucine zipper factors (bZIP)	Group D	CORE		ReMap	10662863::10662863	plants
MA1336	1	TGA3	""	3702	Basic leucine zipper factors (bZIP)	Group D	CORE	DAP-seq	27203113	8487298	plants
MA1335	1	TGA4	""	3702	Basic leucine zipper factors (bZIP)	Group D	CORE	DAP-seq	27203113	8487298	plants
MA1047	2	TGA5	""	3702	Basic leucine zipper factors (bZIP)	Group D	CORE	DAP-seq	27203113	25215497	plants
MA1069	2	TGA6	""	3702	Basic leucine zipper factors (bZIP)	Group D	CORE		ReMap	8487298::8487298	plants
MA1070	2	TGA7	""	3702	Basic leucine zipper factors (bZIP)	Group D	CORE		ReMap	8487298::8487298	plants
MA1348	1	TGA9	""	3702	Basic leucine zipper factors (bZIP)	Group D	CORE	DAP-seq	27203113	8487298	plants
MA1220	1	TINY	""	3702	AP2/EREBP	ERF/DREB	CORE	DAP-seq	27203113	15319480	plants
MA2032	1	TRB1	""	3702	Tryptophan cluster factors	Myb-related	CORE		ReMap	26597966	plants
MA1355	1	TRB2	""	3702	Tryptophan cluster factors	Myb-related	CORE	DAP-seq	27203113	22197883	plants
MA1801	1	TREE1	""	3702	C2H2 zinc finger factors	""	CORE	PBM	24477691	33139535	plants
MA1352	1	TRP1	""	3702	Tryptophan cluster factors	Myb-related	CORE	DAP-seq	27203113	11278537	plants
MA1356	1	TRP2	""	3702	Tryptophan cluster factors	Myb-related	CORE	DAP-seq	27203113	22197883	plants
MA1802	1	TRP5	""	3702	Tryptophan cluster factors	Myb-related	CORE	PBM	31133749	15364931	plants
MA1411	1	TSAR1	""	3880	Basic helix-loop-helix factors (bHLH)	""	CORE	PBM	26589673	15448264	plants
MA1412	1	TSAR2	""	3880	Basic helix-loop-helix factors (bHLH)	""	CORE	PBM	26589673	15448264	plants
MA1161	1	TSO1	""	3702	CPP	""	CORE	DAP-seq	27203113	25215497	plants
MA1074	1	UNE10	""	3702	Basic helix-loop-helix factors (bHLH)	""	CORE	PBM	25215497	21335373	plants
UN0412	1	VFP5	""	3702	Tryptophan cluster factors	Trihelix	UNVALIDATED	DAP-seq	27203113	""	plants
MA1803	1	VIP1	""	3702	Basic leucine zipper factors (bZIP)	Group I	CORE	DAP-seq	27203113	23942522	plants
MA1804	1	WIN1	""	3702	AP2/EREBP	ERF/DREB	CORE	PBM	25215497	9756931	plants
UN0413	1	WOX11	""	3702	Homeo domain factors	WOX	UNVALIDATED	DAP-seq	27203113	""	plants
UN0414	1	WOX13	""	3702	Homeo domain factors	WOX	UNVALIDATED	PBM	25215497	""	plants
MA0589	1	WRKY1	""	3702	GCM domain factors	WRKY	CORE	SELEX		8972846	plants
MA1306	1	WRKY11	""	3702	GCM domain factors	WRKY	CORE	DAP-seq	27203113	11449049	plants
MA1075	1	WRKY12	""	3702	GCM domain factors	WRKY	CORE	PBM	24477691	11449049	plants
MA1314	1	WRKY14	""	3702	GCM domain factors	WRKY	CORE	DAP-seq	27203113	11449049	plants
MA1076	2	WRKY15	""	3702	GCM domain factors	WRKY	CORE	DAP-seq	27203113	25215497	plants
MA1299	1	WRKY17	""	3702	GCM domain factors	WRKY	CORE	DAP-seq	27203113	11449049	plants
MA1077	1	WRKY18	""	3702	GCM domain factors	WRKY	CORE	PBM	24477691	11449049	plants
MA1078	1	WRKY2	""	3702	GCM domain factors	WRKY	CORE	PBM	25215497	11449049	plants
MA1295	1	WRKY20	""	3702	GCM domain factors	WRKY	CORE	DAP-seq	27203113	11449049	plants
MA1079	2	WRKY21	""	3702	GCM domain factors	WRKY	CORE		ReMap	11449049::11449049	plants
MA1303	1	WRKY22	""	3702	GCM domain factors	WRKY	CORE	DAP-seq	27203113	11449049	plants
MA1080	1	WRKY23	""	3702	GCM domain factors	WRKY	CORE	PBM	25215497	11449049	plants
MA1315	1	WRKY24	""	3702	GCM domain factors	WRKY	CORE	DAP-seq	27203113	11449049	plants
MA1081	2	WRKY25	""	3702	GCM domain factors	WRKY	CORE		ReMap	11449049::11449049	plants
MA1297	1	WRKY26	""	3702	GCM domain factors	WRKY	CORE	DAP-seq	27203113	11449049	plants
MA1318	1	WRKY27	""	3702	GCM domain factors	WRKY	CORE	DAP-seq	27203113	11449049	plants
MA1311	2	WRKY28	""	3702	GCM domain factors	WRKY	CORE	DAP-seq	27203113	11449049	plants
MA1298	1	WRKY29	""	3702	GCM domain factors	WRKY	CORE	DAP-seq	27203113	11449049	plants
MA1309	1	WRKY3	""	3702	GCM domain factors	WRKY	CORE	DAP-seq	27203113	11449049	plants
MA1083	2	WRKY30	""	3702	GCM domain factors	WRKY	CORE		ReMap	11449049	plants
MA1307	2	WRKY31	""	3702	GCM domain factors	WRKY	CORE		ReMap	11449049	plants
MA1301	1	WRKY33	""	3702	GCM domain factors	WRKY	CORE	DAP-seq	27203113	11449049	plants
MA1084	1	WRKY38	""	3702	GCM domain factors	WRKY	CORE	PBM	24477691	11449049	plants
MA1085	2	WRKY40	""	3702	GCM domain factors	WRKY	CORE	ChIP-seq	28011690	27203113	plants
MA1310	1	WRKY42	""	3702	GCM domain factors	WRKY	CORE	DAP-seq	27203113	11449049	plants
MA1086	1	WRKY43	""	3702	GCM domain factors	WRKY	CORE	PBM	25215497	11449049	plants
MA1087	2	WRKY45	""	3702	GCM domain factors	WRKY	CORE		ReMap	11449049	plants
MA1296	1	WRKY46	""	3702	GCM domain factors	WRKY	CORE	DAP-seq	27203113	11449049	plants
MA1312	1	WRKY47	""	3702	GCM domain factors	WRKY	CORE	DAP-seq	27203113	11449049	plants
MA1088	1	WRKY48	""	3702	GCM domain factors	WRKY	CORE	PBM	25215497	11449049	plants
MA1317	1	WRKY50	""	3702	GCM domain factors	WRKY	CORE	DAP-seq	27203113	11449049	plants
MA1805	1	WRKY53	""	3702	GCM domain factors	WRKY	CORE	PBM	25220462	11449049	plants
MA1305	1	WRKY55	""	3702	GCM domain factors	WRKY	CORE	DAP-seq	27203113	11449049	plants
MA1089	1	WRKY57	""	3702	GCM domain factors	WRKY	CORE	PBM	25215497	11449049	plants
MA1304	1	WRKY59	""	3702	GCM domain factors	WRKY	CORE	DAP-seq	27203113	11449049	plants
MA1300	1	WRKY6	""	3702	GCM domain factors	WRKY	CORE	DAP-seq	27203113	11449049	plants
MA1090	1	WRKY60	""	3702	GCM domain factors	WRKY	CORE	PBM	25215497	11449049	plants
MA1091	1	WRKY62	""	3702	GCM domain factors	WRKY	CORE	PBM	25215497	11449049	plants
MA1092	1	WRKY63	""	3702	GCM domain factors	WRKY	CORE	PBM	25215497	11449049	plants
MA1302	1	WRKY65	""	3702	GCM domain factors	WRKY	CORE	DAP-seq	27203113	11449049	plants
MA1313	1	WRKY7	""	3702	GCM domain factors	WRKY	CORE	DAP-seq	27203113	11449049	plants
MA1308	1	WRKY70	""	3702	GCM domain factors	WRKY	CORE	DAP-seq	27203113	11449049	plants
MA1316	1	WRKY71	""	3702	GCM domain factors	WRKY	CORE	DAP-seq	27203113	11449049	plants
MA1093	1	WRKY75	""	3702	GCM domain factors	WRKY	CORE	PBM	25215497	11449049	plants
MA1094	2	WRKY8	""	3702	GCM domain factors	WRKY	CORE		ReMap	11449049	plants
UN0415	1	YAB1	""	3702	Other C4 zinc finger-type factors	YABBY	UNVALIDATED	PBM	24477691	""	plants
MA1186	1	YAB4	""	3702	Tryptophan cluster factors	Myb-related	CORE	DAP-seq	27203113	25215497	plants
UN0416	1	YAB5	""	3702	Other C4 zinc finger-type factors	YABBY	UNVALIDATED	PBM	24477691	""	plants
MA1372	1	ZAT10	""	3702	C2H2 zinc finger factors	""	CORE	DAP-seq	27203113	25215497	plants
MA2052	1	ZAT6	""	3702	C2H2 zinc finger factors	""	CORE		ReMap	24834923	plants
UN0417	1	ZAT9	""	3702	C2H2 zinc finger factors	""	UNVALIDATED	DAP-seq	27203113	""	plants
MA1329	2	ZHD1	""	3702	Homeo domain factors	PLINC	CORE	DAP-seq	27203113	11247607	plants
MA1807	1	ZHD10	""	3702	Homeo domain factors	PLINC	CORE	DAP-seq	27203113	21059647	plants
MA1213	2	ZHD3	""	3702	Homeo domain factors	PLINC	CORE		ReMap	11247607::11247607	plants
MA1326	1	ZHD5	""	3702	Homeo domain factors	PLINC	CORE	DAP-seq	27203113	11247607	plants
MA1330	1	ZHD6	""	3702	Homeo domain factors	PLINC	CORE	DAP-seq	27203113	11247607	plants
MA1328	1	ZHD9	""	3702	Homeo domain factors	PLINC	CORE	DAP-seq	27203113	11247607	plants
MA1832	1	Zm00001d002364	""	4577	AP2/EREBP	ERF/DREB	CORE	ChIP-seq	33037196	9159183	plants
MA1824	1	Zm00001d005692	""	4577	Homeo domain factors	HD-ZIP	CORE	ChIP-seq	33037196	8253077	plants
MA1819	1	Zm00001d005892	""	4577	AP2/EREBP	ERF/DREB	CORE	ChIP-seq	33037196	24477691	plants
UN0434	1	Zm00001d013777	""	4577	Tryptophan cluster factors	Myb-related	UNVALIDATED	ChIP-seq	33037196	""	plants
MA1830	1	Zm00001d015407	""	4577	Tryptophan cluster factors	GARP_G2-like	CORE	ChIP-seq	33037196	24477691	plants
MA1822	1	Zm00001d018571	""	4577	Basic leucine zipper factors (bZIP)	""	CORE	ChIP-seq	33037196	8487298	plants
MA1817	1	Zm00001d020267	""	4577	AP2/EREBP	ERF/DREB	CORE	ChIP-seq	33037196	26303437	plants
MA1821	1	Zm00001d020595	""	4577	AP2/EREBP	ERF/DREB	CORE	ChIP-seq	33037196	24477691	plants
MA1820	1	Zm00001d024324	""	4577	AP2/EREBP	ERF/DREB	CORE	ChIP-seq	33037196	24477691	plants
UN0433	1	Zm00001d024644	""	4577	Tryptophan cluster factors	Myb-related	UNVALIDATED	ChIP-seq	33037196	""	plants
MA1823	1	Zm00001d027846	""	4577	Other C4 zinc finger-type factors	DOF	CORE	ChIP-seq	33037196	10074718	plants
MA1831	1	Zm00001d031796	""	4577	AP2/EREBP	ERF/DREB	CORE	ChIP-seq	33037196	24477691	plants
MA1834	1	Zm00001d034298	""	4577	Basic helix-loop-helix factors (bHLH)	""	CORE	ChIP-seq	33037196	24477691	plants
MA1829	1	Zm00001d035604	""	4577	Tryptophan cluster factors	Myb	CORE	ChIP-seq	33037196	31009122	plants
MA1828	1	Zm00001d038683	""	4577	Basic helix-loop-helix factors (bHLH)	TCP	CORE	ChIP-seq	33037196	18816164	plants
UN0432	1	Zm00001d042907	""	4577	GRAS	""	UNVALIDATED	ChIP-seq	33037196	""	plants
MA1825	1	Zm00001d044409	""	4577	Tryptophan cluster factors	Myb-related	CORE	ChIP-seq	33037196	10652136	plants
MA1827	1	Zm00001d044785	""	4577	Tryptophan cluster factors	GARP_G2-like	CORE	ChIP-seq	33037196	2902624	plants
MA1833	1	Zm00001d049364	""	4577	AP2/EREBP	ERF/DREB	CORE	ChIP-seq	33037196	9159183	plants
MA1818	1	Zm00001d052229	""	4577	AP2/EREBP	ERF/DREB	CORE	ChIP-seq	33037196	24477691	plants
MA0123	1	abi4	""	4577	AP2/EREBP	ERF/DREB	CORE	SELEX		12368505	plants
MA1358	1	bHLH130	""	3702	Basic helix-loop-helix factors (bHLH)	""	CORE	DAP-seq	27203113	21335373	plants
MA1826	1	bHLH145	""	4577	B3	ARF	CORE	ChIP-seq	33037196	2145628	plants
UN0431	1	bHLH172	""	4577	Basic helix-loop-helix factors (bHLH)	""	UNVALIDATED	ChIP-seq	33037196	""	plants
MA1361	1	bHLH18	""	3702	Basic helix-loop-helix factors (bHLH)	""	CORE	DAP-seq	27203113	21335373	plants
MA1362	1	bHLH77	""	3702	Basic helix-loop-helix factors (bHLH)	""	CORE	DAP-seq	27203113	21335373	plants
MA1357	1	bHLH80	""	3702	Basic helix-loop-helix factors (bHLH)	""	CORE	DAP-seq	27203113	21335373	plants
MA0096	1	bZIP910	""	4151	Basic leucine zipper factors (bZIP)	Group S	CORE	SELEX		9680995	plants
MA0097	1	bZIP911	""	4151	Basic leucine zipper factors (bZIP)	Group S	CORE	SELEX		9680995	plants
MA0054	1	myb.Ph3	""	4102	Tryptophan cluster factors	Myb	CORE	SELEX		7737128	plants
MA0082	1	squamosa	""	4151	MADS box factors	MIKC	CORE	SELEX		9826749	plants
