base_id	version	name	uniprot_ids	tax_id	class	family	collection	type	source	pubmed_ids	tax_group
MA0265	2	ABF1	""	4932	Basic helix-loop-helix factors (bHLH)	Tal-related	CORE	ChIP-exo	32747934	19111667	fungi
MA0266	1	ABF2	""	4932	High-mobility group (HMG) domain factors	""	CORE	PBM, CSA and/or DIP-chip		19111667	fungi
MA0267	1	ACE2	""	4932	C2H2 zinc finger factors	Other factors with up to three adjacent zinc fingers	CORE	PBM, CSA and/or DIP-chip		19111667	fungi
MA0268	1	ADR1	""	4932	C2H2 zinc finger factors	Other factors with up to three adjacent zinc fingers	CORE	PBM, CSA and/or DIP-chip		19111667	fungi
MA0269	1	AFT1	""	4932	""	""	CORE	PBM		18842628	fungi
MA0270	1	AFT2	""	4932	""	""	CORE	PBM, CSA and/or DIP-chip		19111667	fungi
UN0277	1	ANIA_00835	""	162425	C6 zinc cluster factors	""	UNVALIDATED	PBM	31133749	""	fungi
UN0278	1	ANIA_01298	""	162425	Basic helix-loop-helix factors (bHLH)	""	UNVALIDATED	PBM	31133749	""	fungi
UN0279	1	ANIA_01705	""	162425	C6 zinc cluster factors	""	UNVALIDATED	PBM	31133749	""	fungi
UN0280	1	ANIA_01729	""	162425	C6 zinc cluster factors	""	UNVALIDATED	PBM	31133749	""	fungi
UN0281	1	ANIA_01812	""	162425	Basic leucine zipper factors (bZIP)	""	UNVALIDATED	PBM	31133749	""	fungi
UN0282	1	ANIA_01824	""	162425	C6 zinc cluster factors	""	UNVALIDATED	PBM	31133749	""	fungi
UN0283	1	ANIA_02553	""	162425	C6 zinc cluster factors	""	UNVALIDATED	PBM	31133749	""	fungi
UN0284	1	ANIA_02725	""	162425	C6 zinc cluster factors	""	UNVALIDATED	PBM	31133749	""	fungi
UN0285	1	ANIA_02785	""	162425	C6 zinc cluster factors	""	UNVALIDATED	PBM	31133749	""	fungi
UN0286	1	ANIA_02839	""	162425	C6 zinc cluster factors	""	UNVALIDATED	PBM	31133749	""	fungi
UN0287	1	ANIA_03986	""	162425	C6 zinc cluster factors	""	UNVALIDATED	PBM	31133749	""	fungi
UN0288	1	ANIA_04606	""	162425	C6 zinc cluster factors	""	UNVALIDATED	PBM	31133749	""	fungi
UN0289	1	ANIA_05609	""	162425	C6 zinc cluster factors	""	UNVALIDATED	PBM	31133749	""	fungi
UN0290	1	ANIA_06762	""	162425	C6 zinc cluster factors	""	UNVALIDATED	PBM	31133749	""	fungi
UN0291	1	ANIA_06788	""	162425	C6 zinc cluster factors	""	UNVALIDATED	PBM	31133749	""	fungi
UN0292	1	ANIA_06846	""	162425	C6 zinc cluster factors	""	UNVALIDATED	PBM	31133749	""	fungi
UN0293	1	ANIA_07170	""	162425	Basic helix-loop-helix factors (bHLH)	""	UNVALIDATED	PBM	31133749	""	fungi
UN0294	1	ANIA_07553	""	162425	Basic helix-loop-helix factors (bHLH)	""	UNVALIDATED	PBM	31133749	""	fungi
UN0295	1	ANIA_08535	""	162425	C6 zinc cluster factors	""	UNVALIDATED	PBM	31133749	""	fungi
UN0296	1	ANIA_10295	""	162425	Basic leucine zipper factors (bZIP)	""	UNVALIDATED	PBM	31133749	""	fungi
UN0297	1	ANIA_10483	""	162425	Basic leucine zipper factors (bZIP)	""	UNVALIDATED	PBM	31133749	""	fungi
UN0298	1	ANIA_10541	""	162425	C6 zinc cluster factors	""	UNVALIDATED	PBM	31133749	""	fungi
UN0299	1	ANIA_10597	""	162425	C6 zinc cluster factors	""	UNVALIDATED	PBM	31133749	""	fungi
UN0300	1	ANIA_10600	""	162425	C6 zinc cluster factors	""	UNVALIDATED	PBM	31133749	""	fungi
UN0301	1	ANIA_10789	""	162425	C6 zinc cluster factors	""	UNVALIDATED	PBM	31133749	""	fungi
UN0302	1	ANIA_10912	""	162425	C6 zinc cluster factors	""	UNVALIDATED	PBM	31133749	""	fungi
MA0271	1	ARG80	""	4932	MADS box factors	""	CORE	ChIP-chip		16522208	fungi
MA0272	1	ARG81	""	4932	C6 zinc cluster factors	""	CORE	ChIP-chip		16522208	fungi
MA0273	1	ARO80	""	4932	C6 zinc cluster factors	""	CORE	PBM		18842628	fungi
MA0274	1	ARR1	""	4932	Basic leucine zipper factors (bZIP)	""	CORE	ChIP-chip		16522208	fungi
MA0275	1	ASG1	""	4932	C6 zinc cluster factors	""	CORE	PBM, CSA and/or DIP-chip		19111667	fungi
MA0276	1	ASH1	""	4932	Other C4 zinc finger-type factors	C4-GATA-related	CORE	ChIP-chip		16522208	fungi
MA0277	1	AZF1	""	4932	C2H2 zinc finger factors	""	CORE	PBM, CSA and/or DIP-chip		19111667	fungi
MA0278	1	BAS1	""	4932	Tryptophan cluster factors	Myb/SANT domain factors	CORE	PBM		18842628	fungi
MA0279	2	CAD1	""	4932	Basic leucine zipper factors (bZIP)	""	CORE	ChIP-exo	32747934	17130146	fungi
MA0280	1	CAT8	""	4932	C6 zinc cluster factors	""	CORE	PBM, CSA and/or DIP-chip		19111667	fungi
MA0281	2	CBF1	""	4932	Basic helix-loop-helix factors (bHLH)	bHLH-ZIP	CORE	ChIP-exo	32747934	19111667	fungi
MA0282	1	CEP3	""	4932	C6 zinc cluster factors	""	CORE	PBM, CSA and/or DIP-chip		19111667	fungi
MA0283	1	CHA4	""	4932	C6 zinc cluster factors	""	CORE	PBM, CSA and/or DIP-chip		19111667	fungi
MA0284	2	CIN5	""	4932	Basic leucine zipper factors (bZIP)	""	CORE	ChIP-exo	32747934	19111667	fungi
UN0099	1	CNI01970	""	5207	C2H2 zinc finger factors	""	UNVALIDATED	PBM	31133749	""	fungi
MA0285	1	CRZ1	""	4932	C2H2 zinc finger factors	Other factors with up to three adjacent zinc fingers	CORE	PBM, CSA and/or DIP-chip		19111667	fungi
MA0286	1	CST6	""	4932	Basic leucine zipper factors (bZIP)	""	CORE	PBM, CSA and/or DIP-chip		19111667	fungi
MA0287	1	CUP2	""	4932	Copper-fist DNA-binding domain	""	CORE	COMPILED		17130146	fungi
MA0288	1	CUP9	""	4932	Homeo domain factors	TALE-type homeo domain factors	CORE	PBM, CSA and/or DIP-chip		19111667	fungi
MA0289	1	DAL80	""	4932	Other C4 zinc finger-type factors	C4-GATA-related	CORE	PBM, CSA and/or DIP-chip		19111667	fungi
MA0290	1	DAL81	""	4932	C6 zinc cluster factors	""	CORE	ChIP-chip		16522208	fungi
MA0291	1	DAL82	""	4932	""	""	CORE	PBM, CSA and/or DIP-chip		19111667	fungi
MA0351	1	DOT6	""	4932	Tryptophan cluster factors	Myb/SANT domain factors	CORE	PBM		18842628	fungi
MA0292	1	ECM22	""	4932	C6 zinc cluster factors	""	CORE	PBM, CSA and/or DIP-chip		19111667	fungi
MA0293	1	ECM23	""	4932	Other C4 zinc finger-type factors	C4-GATA-related	CORE	PBM, CSA and/or DIP-chip		19111667	fungi
MA0294	1	EDS1	""	4932	C6 zinc cluster factors	""	CORE	PBM, CSA and/or DIP-chip		19111667	fungi
MA0420	1	ERT1	""	4932	C6 zinc cluster factors	""	CORE	PBM, CSA and/or DIP-chip		19111667	fungi
UN0103	1	FG04288.1	""	5518	C2H2 zinc finger factors	""	UNVALIDATED	PBM	31133749	""	fungi
MA0295	1	FHL1	""	4932	Fork head/winged helix factors	FOX	CORE	PBM, CSA and/or DIP-chip		19111667	fungi
MA0296	1	FKH1	""	4932	Fork head/winged helix factors	FOX	CORE	PBM		18842628	fungi
MA0297	1	FKH2	""	4932	Fork head/winged helix factors	FOX	CORE	PBM, CSA and/or DIP-chip		19111667	fungi
MA0299	1	GAL4	""	4932	C6 zinc cluster factors	""	CORE	PBM		18842628	fungi
MA0300	1	GAT1	""	4932	Other C4 zinc finger-type factors	C4-GATA-related	CORE	PBM, CSA and/or DIP-chip		19111667	fungi
MA0301	1	GAT3	""	4932	Other C4 zinc finger-type factors	C4-GATA-related	CORE	PBM, CSA and/or DIP-chip		19111667	fungi
MA0302	1	GAT4	""	4932	Other C4 zinc finger-type factors	C4-GATA-related	CORE	PBM, CSA and/or DIP-chip		19111667	fungi
MA0303	2	GCN4	""	4932	Basic leucine zipper factors (bZIP)	""	CORE	ChIP-exo	32747934	18842628	fungi
MA0304	1	GCR1	""	4932	""	""	CORE	COMPILED		10487868	fungi
MA0305	1	GCR2	""	4932	""	""	CORE	ChIP-chip		16522208	fungi
MA0306	1	GIS1	""	4932	C2H2 zinc finger factors	Other factors with up to three adjacent zinc fingers	CORE	PBM, CSA and/or DIP-chip		19111667	fungi
MA0307	1	GLN3	""	4932	Other C4 zinc finger-type factors	C4-GATA-related	CORE	PBM, CSA and/or DIP-chip		19111667	fungi
MA0308	1	GSM1	""	4932	C6 zinc cluster factors	""	CORE	PBM		18842628	fungi
MA0309	1	GZF3	""	4932	Other C4 zinc finger-type factors	C4-GATA-related	CORE	PBM, CSA and/or DIP-chip		19111667	fungi
MA0310	1	HAC1	""	4932	Basic leucine zipper factors (bZIP)	""	CORE	PBM, CSA and/or DIP-chip		19111667	fungi
MA0311	1	HAL9	""	4932	C6 zinc cluster factors	""	CORE	PBM, CSA and/or DIP-chip		19111667	fungi
MA0312	2	HAP1	""	4932	C6 zinc cluster factors	""	CORE	ChIP-exo	32747934	19111667	fungi
MA0313	1	HAP2	""	4932	Heteromeric CCAAT-binding factors	Heteromeric CCAAT-binding	CORE	COMPILED		17130146	fungi
MA0314	2	HAP3	""	4932	Heteromeric CCAAT-binding factors	Heteromeric CCAAT-binding	CORE	ChIP-exo	32747934	17130146	fungi
MA0316	1	HAP5	""	4932	Heteromeric CCAAT-binding factors	Heteromeric CCAAT-binding	CORE	COMPILED		17130146	fungi
UN0082	1	HCAG_04779	""	5037	C2H2 zinc finger factors	Other factors with up to three adjacent zinc fingers	UNVALIDATED	PBM	31133749	""	fungi
MA0317	1	HCM1	""	4932	Fork head/winged helix factors	FOX	CORE	PBM, CSA and/or DIP-chip		19111667	fungi
MA0327	1	HMRA1	""	4932	Homeo domain factors	""	CORE	ChIP-chip		16522208	fungi
MA0318	1	HMRA2	""	4932	Homeo domain factors	TALE-type homeo domain factors	CORE	PBM, CSA and/or DIP-chip		19111667	fungi
MA0319	1	HSF1	""	4932	Heat shock factors	HSF factors	CORE	PBM, CSA and/or DIP-chip		19111667	fungi
MA0320	1	IME1	""	4932	""	""	CORE	ChIP-chip		16522208	fungi
MA0321	1	INO2	""	4932	Basic helix-loop-helix factors (bHLH)	""	CORE	ChIP-chip		16522208	fungi
MA0322	1	INO4	""	4932	Basic helix-loop-helix factors (bHLH)	""	CORE	ChIP-chip		16522208	fungi
MA0323	1	IXR1	""	4932	High-mobility group (HMG) domain factors	""	CORE	ChIP-chip		16522208	fungi
UN0435	1	Kar4	""	4932	""	""	UNVALIDATED	ChIP-exo	32747934	""	fungi
MA0324	1	LEU3	""	4932	C6 zinc cluster factors	""	CORE	PBM, CSA and/or DIP-chip		19111667	fungi
MA0325	1	LYS14	""	4932	C6 zinc cluster factors	""	CORE	PBM, CSA and/or DIP-chip		19111667	fungi
MA0326	1	MAC1	""	4932	Copper-fist DNA-binding domain	""	CORE	COMPILED		17130146	fungi
MA0328	2	MATALPHA2	""	559292	Homeo domain factors	TALE-type homeo domain factors	CORE	PBM	25215497	9858582	fungi
MA0329	1	MBP1	""	4932	APSES-type DNA-binding domain	""	CORE	PBM, CSA and/or DIP-chip		19111667	fungi
MA0330	1	MBP1::SWI6	""	4932	APSES-type DNA-binding domain	""	CORE	COMPILED		17130146	fungi
MA0331	1	MCM1	""	4932	MADS box factors	""	CORE	COMPILED		17130146	fungi
MA0332	1	MET28	""	4932	Basic leucine zipper factors (bZIP)	""	CORE	ChIP-chip		16522208	fungi
MA0333	1	MET31	""	4932	C2H2 zinc finger factors	""	CORE	PBM, CSA and/or DIP-chip		19111667	fungi
MA0334	1	MET32	""	4932	C2H2 zinc finger factors	Other factors with up to three adjacent zinc fingers	CORE	PBM, CSA and/or DIP-chip		19111667	fungi
MA0335	1	MET4	""	4932	Basic leucine zipper factors (bZIP)	""	CORE	ChIP-chip		16522208	fungi
MA0336	1	MGA1	""	4932	Heat shock factors	HSF factors	CORE	PBM		18842628	fungi
MA0337	1	MIG1	""	4932	C2H2 zinc finger factors	Other factors with up to three adjacent zinc fingers	CORE	PBM, CSA and/or DIP-chip		19111667	fungi
MA0338	1	MIG2	""	4932	C2H2 zinc finger factors	Other factors with up to three adjacent zinc fingers	CORE	PBM, CSA and/or DIP-chip		19111667	fungi
MA0339	1	MIG3	""	4932	C2H2 zinc finger factors	Other factors with up to three adjacent zinc fingers	CORE	PBM, CSA and/or DIP-chip		19111667	fungi
MA0379	1	MOT2	""	4932	RING-type zinc finger	""	CORE	PBM, CSA and/or DIP-chip		19111667	fungi
MA0340	1	MOT3	""	4932	C2H2 zinc finger factors	Other factors with up to three adjacent zinc fingers	CORE	ChIP-chip		16522208	fungi
MA0341	1	MSN2	""	4932	C2H2 zinc finger factors	Other factors with up to three adjacent zinc fingers	CORE	PBM, CSA and/or DIP-chip		19111667	fungi
MA0342	1	MSN4	""	4932	C2H2 zinc finger factors	Other factors with up to three adjacent zinc fingers	CORE	PBM, CSA and/or DIP-chip		19111667	fungi
MA0929	1	NCU00019	""	5141	Fork head/winged helix factors	FOX	CORE	PBM	25215497	17947326::19111667	fungi
UN0087	1	NCU01074	""	5141	Basic leucine zipper factors (bZIP)	""	UNVALIDATED	PBM	31133749	""	fungi
UN0088	1	NCU01629	""	5141	C2H2 zinc finger factors	Other factors with up to three adjacent zinc fingers	UNVALIDATED	PBM	31133749	""	fungi
MA1434	1	NCU02182	""	5141	Tryptophan cluster factors	Myb/SANT domain factors	CORE	PBM	31133749	26577093	fungi
UN0089	1	NCU03421	""	5141	C2H2 zinc finger factors	More than 3 adjacent zinc fingers	UNVALIDATED	PBM	31133749	""	fungi
UN0090	1	NCU04211	""	5141	Basic leucine zipper factors (bZIP)	""	UNVALIDATED	PBM	31133749	""	fungi
UN0091	1	NCU05061	""	5141	C2H2 zinc finger factors	""	UNVALIDATED	PBM	31133749	""	fungi
UN0092	1	NCU05637	""	5141	Basic leucine zipper factors (bZIP)	""	UNVALIDATED	PBM	31133749	""	fungi
UN0093	1	NCU05909	""	5141	C2H2 zinc finger factors	Other factors with up to three adjacent zinc fingers	UNVALIDATED	PBM	31133749	""	fungi
UN0094	1	NCU06487	""	5141	C2H2 zinc finger factors	Other factors with up to three adjacent zinc fingers	UNVALIDATED	PBM	31133749	""	fungi
UN0095	1	NCU09576	""	5141	C2H2 zinc finger factors	Other factors with up to three adjacent zinc fingers	UNVALIDATED	PBM	31133749	""	fungi
UN0096	1	NCU10697	""	5141	C6 zinc cluster factors	""	UNVALIDATED	PBM	31133749	""	fungi
MA0343	1	NDT80	""	4932	NDT80 domain factors	""	CORE	PBM		18842628	fungi
MA0344	1	NHP10	""	4932	High-mobility group (HMG) domain factors	""	CORE	PBM, CSA and/or DIP-chip		19111667	fungi
MA0347	2	NRG1	""	4932	C2H2 zinc finger factors	Other factors with up to three adjacent zinc fingers	CORE	ChIP-exo	32747934	18842628	fungi
MA0421	1	NSI1	""	4932	Tryptophan cluster factors	Myb/SANT domain factors	CORE	COMPILED		17130146	fungi
MA0348	1	OAF1	""	4932	C6 zinc cluster factors	""	CORE	PBM, CSA and/or DIP-chip		19111667	fungi
MA0349	1	OPI1	""	4932	""	""	CORE	ChIP-chip		16522208	fungi
MA0352	2	PDR1	""	4932	C6 zinc cluster factors	""	CORE	ChIP-exo	32747934	19111667	fungi
MA0353	1	PDR3	""	4932	C6 zinc cluster factors	""	CORE	ChIP-chip		16522208	fungi
MA0354	1	PDR8	""	4932	C6 zinc cluster factors	""	CORE	PBM, CSA and/or DIP-chip		19111667	fungi
UN0100	1	PGTG_04827	""	5297	C2H2 zinc finger factors	""	UNVALIDATED	PBM	31133749	""	fungi
MA0355	1	PHD1	""	4932	APSES-type DNA-binding domain	""	CORE	PBM, CSA and/or DIP-chip		19111667	fungi
MA0356	1	PHO2	""	4932	Homeo domain factors	""	CORE	PBM, CSA and/or DIP-chip		19111667	fungi
MA0357	1	PHO4	""	4932	Basic helix-loop-helix factors (bHLH)	""	CORE	PBM		18842628	fungi
MA0358	1	PUT3	""	4932	C6 zinc cluster factors	""	CORE	PBM, CSA and/or DIP-chip		19111667	fungi
UN0303	1	Phyra42912	""	164328	C2H2 zinc finger factors	Other factors with up to three adjacent zinc fingers	UNVALIDATED	PBM	31133749	""	fungi
MA0359	2	RAP1	""	4932	Tryptophan cluster factors	Myb/SANT domain factors	CORE	ChIP-exo	32747934	19111667	fungi
MA0360	1	RDR1	""	4932	C6 zinc cluster factors	""	CORE	PBM, CSA and/or DIP-chip		19111667	fungi
MA0361	1	RDS1	""	4932	C6 zinc cluster factors	""	CORE	PBM, CSA and/or DIP-chip		19111667	fungi
MA0362	1	RDS2	""	4932	C6 zinc cluster factors	""	CORE	PBM, CSA and/or DIP-chip		19111667	fungi
MA0363	2	REB1	""	4932	Tryptophan cluster factors	Myb/SANT domain factors	CORE	ChIP-exo	32747934	19111667	fungi
MA0364	1	REI1	""	4932	C2H2 zinc finger factors	Factors with multiple dispersed zinc fingers	CORE	PBM, CSA and/or DIP-chip		19111667	fungi
MA0365	1	RFX1	""	4932	Fork head/winged helix factors	RFX-related factors	CORE	PBM, CSA and/or DIP-chip		19111667	fungi
MA0366	1	RGM1	""	4932	C2H2 zinc finger factors	""	CORE	PBM, CSA and/or DIP-chip		19111667	fungi
MA0367	1	RGT1	""	4932	C6 zinc cluster factors	""	CORE	PBM, CSA and/or DIP-chip		19111667	fungi
MA0368	1	RIM101	""	4932	C2H2 zinc finger factors	Factors with multiple dispersed zinc fingers	CORE	PBM, CSA and/or DIP-chip		19111667	fungi
MA0369	1	RLM1	""	4932	MADS box factors	Regulators of differentiation	CORE	COMPILED		10487868	fungi
MA0370	1	RME1	""	4932	C2H2 zinc finger factors	Factors with multiple dispersed zinc fingers	CORE	ChIP-chip		16522208	fungi
UN0274	1	RO3G_06280	""	64495	C2H2 zinc finger factors	Other factors with up to three adjacent zinc fingers	UNVALIDATED	PBM	31133749	""	fungi
MA0371	1	ROX1	""	4932	High-mobility group (HMG) domain factors	""	CORE	PBM, CSA and/or DIP-chip		19111667	fungi
MA0372	1	RPH1	""	4932	C2H2 zinc finger factors	Other factors with up to three adjacent zinc fingers	CORE	PBM, CSA and/or DIP-chip		19111667	fungi
MA0373	1	RPN4	""	4932	C2H2 zinc finger factors	""	CORE	PBM, CSA and/or DIP-chip		19111667	fungi
MA0374	1	RSC3	""	4932	C6 zinc cluster factors	""	CORE	PBM, CSA and/or DIP-chip		19111667	fungi
MA0375	1	RSC30	""	4932	C6 zinc cluster factors	""	CORE	PBM, CSA and/or DIP-chip		19111667	fungi
MA0376	1	RTG3	""	4932	Basic helix-loop-helix factors (bHLH)	""	CORE	PBM		18842628	fungi
UN0101	1	SCHCODRAFT_110010	""	5334	C6 zinc cluster factors	""	UNVALIDATED	PBM	31133749	""	fungi
UN0102	1	SCHCODRAFT_67234	""	5334	C6 zinc cluster factors	""	UNVALIDATED	PBM	31133749	""	fungi
MA0377	1	SFL1	""	4932	Heat shock factors	HSF factors	CORE	PBM		18842628	fungi
MA0378	1	SFP1	""	4932	C2H2 zinc finger factors	Factors with multiple dispersed zinc fingers	CORE	PBM		18842628	fungi
MA0380	1	SIP4	""	4932	C6 zinc cluster factors	""	CORE	PBM, CSA and/or DIP-chip		19111667	fungi
MA0381	1	SKN7	""	4932	Heat shock factors	HSF factors	CORE	PBM, CSA and/or DIP-chip		19111667	fungi
MA0382	2	SKO1	""	4932	Basic leucine zipper factors (bZIP)	""	CORE	ChIP-exo	32747934	17130146	fungi
MA0384	1	SNT2	""	4932	Tryptophan cluster factors	Myb/SANT domain factors	CORE	COMPILED		17130146	fungi
MA0385	1	SOK2	""	4932	APSES-type DNA-binding domain	""	CORE	PBM, CSA and/or DIP-chip		19111667	fungi
MA0386	1	SPT15	""	4932	TATA-binding proteins	TBP-related factors	CORE	PBM		18842628	fungi
MA0387	1	SPT2	""	4932	""	""	CORE	ChIP-chip		16522208	fungi
MA0388	1	SPT23	""	4932	""	""	CORE	ChIP-chip		16522208	fungi
MA0389	1	SRD1	""	4932	Other C4 zinc finger-type factors	C4-GATA-related	CORE	PBM, CSA and/or DIP-chip		19111667	fungi
MA0390	1	STB3	""	4932	""	""	CORE	PBM		18842628	fungi
MA0391	1	STB4	""	4932	C6 zinc cluster factors	""	CORE	PBM, CSA and/or DIP-chip		19111667	fungi
MA0392	1	STB5	""	4932	C6 zinc cluster factors	""	CORE	PBM, CSA and/or DIP-chip		19111667	fungi
MA0393	1	STE12	""	4932	""	""	CORE	COMPILED		17130146	fungi
MA0394	1	STP1	""	4932	C2H2 zinc finger factors	Factors with multiple dispersed zinc fingers	CORE	ChIP-chip		16522208	fungi
MA0395	1	STP2	""	4932	C2H2 zinc finger factors	Factors with multiple dispersed zinc fingers	CORE	PBM		18842628	fungi
MA0396	1	STP3	""	4932	C2H2 zinc finger factors	""	CORE	PBM, CSA and/or DIP-chip		19111667	fungi
MA0397	1	STP4	""	4932	C2H2 zinc finger factors	""	CORE	PBM, CSA and/or DIP-chip		19111667	fungi
MA0398	1	SUM1	""	4932	A.T hook factors	""	CORE	PBM, CSA and/or DIP-chip		19111667	fungi
MA0399	1	SUT1	""	4932	C6 zinc cluster factors	""	CORE	ChIP-chip		16522208	fungi
MA0400	1	SUT2	""	4932	C6 zinc cluster factors	""	CORE	PBM		18842628	fungi
MA0401	1	SWI4	""	4932	APSES-type DNA-binding domain	""	CORE	PBM, CSA and/or DIP-chip		19111667	fungi
MA0402	1	SWI5	""	4932	A.T hook factors	""	CORE	PBM, CSA and/or DIP-chip		19111667	fungi
MA0403	2	TBF1	""	4932	Tryptophan cluster factors	Myb/SANT domain factors	CORE	ChIP-exo	32747934	19111667	fungi
MA0404	1	TBS1	""	4932	C6 zinc cluster factors	""	CORE	PBM, CSA and/or DIP-chip		19111667	fungi
MA0431	1	TDA9	""	4932	C2H2 zinc finger factors	Other factors with up to three adjacent zinc fingers	CORE	PBM, CSA and/or DIP-chip		19111667	fungi
MA0405	1	TEA1	""	4932	C6 zinc cluster factors	""	CORE	PBM, CSA and/or DIP-chip		19111667	fungi
MA0406	1	TEC1	""	4932	TEA domain factors	""	CORE	PBM, CSA and/or DIP-chip		19111667	fungi
MA0407	1	THI2	""	4932	C6 zinc cluster factors	""	CORE	COMPILED		17130146	fungi
MA0350	1	TOD6	""	4932	Tryptophan cluster factors	Myb/SANT domain factors	CORE	PBM		18842628	fungi
MA0408	1	TOS8	""	4932	Homeo domain factors	TALE-type homeo domain factors	CORE	PBM, CSA and/or DIP-chip		19111667	fungi
MA0409	1	TYE7	""	4932	Basic helix-loop-helix factors (bHLH)	""	CORE	PBM, CSA and/or DIP-chip		19111667	fungi
MA0410	1	UGA3	""	4932	C6 zinc cluster factors	""	CORE	PBM, CSA and/or DIP-chip		19111667	fungi
MA0412	2	UME6	""	4932	C6 zinc cluster factors	""	CORE	ChIP-exo	32747934	17130146	fungi
MA0411	1	UPC2	""	4932	C6 zinc cluster factors	""	CORE	PBM, CSA and/or DIP-chip		19111667	fungi
MA0422	1	URC2	""	4932	C6 zinc cluster factors	""	CORE	PBM, CSA and/or DIP-chip		19111667	fungi
MA0413	1	USV1	""	4932	C2H2 zinc finger factors	""	CORE	PBM		18842628	fungi
MA0414	1	XBP1	""	4932	""	""	CORE	PBM, CSA and/or DIP-chip		19111667	fungi
MA0415	1	YAP1	""	4932	Basic leucine zipper factors (bZIP)	""	CORE	PBM		18842628	fungi
MA0416	1	YAP3	""	4932	Basic leucine zipper factors (bZIP)	""	CORE	PBM, CSA and/or DIP-chip		19111667	fungi
MA0417	1	YAP5	""	4932	Basic leucine zipper factors (bZIP)	""	CORE	ChIP-chip		16522208	fungi
MA0418	1	YAP6	""	4932	Basic leucine zipper factors (bZIP)	""	CORE	PBM		18842628	fungi
MA0419	1	YAP7	""	4932	Basic leucine zipper factors (bZIP)	""	CORE	COMPILED		17130146	fungi
MA0423	1	YER130C	""	4932	C2H2 zinc finger factors	Other factors with up to three adjacent zinc fingers	CORE	PBM, CSA and/or DIP-chip		19111667	fungi
MA0424	1	YER184C	""	4932	C6 zinc cluster factors	""	CORE	PBM, CSA and/or DIP-chip		19111667	fungi
MA0425	1	YGR067C	""	4932	C2H2 zinc finger factors	Other factors with up to three adjacent zinc fingers	CORE	PBM, CSA and/or DIP-chip		19111667	fungi
MA0426	1	YHP1	""	4932	Homeo domain factors	""	CORE	ChIP-chip		16522208	fungi
MA0428	1	YKL222C	""	4932	C6 zinc cluster factors	""	CORE	PBM, CSA and/or DIP-chip		19111667	fungi
MA0429	1	YLL054C	""	4932	C6 zinc cluster factors	""	CORE	PBM, CSA and/or DIP-chip		19111667	fungi
MA0430	1	YLR278C	""	4932	C6 zinc cluster factors	""	CORE	PBM, CSA and/or DIP-chip		19111667	fungi
MA0432	1	YNR063W	""	4932	C6 zinc cluster factors	""	CORE	PBM, CSA and/or DIP-chip		19111667	fungi
MA0433	1	YOX1	""	4932	Homeo domain factors	""	CORE	PBM, CSA and/or DIP-chip		19111667	fungi
MA0434	1	YPR013C	""	4932	C2H2 zinc finger factors	Other factors with up to three adjacent zinc fingers	CORE	PBM, CSA and/or DIP-chip		19111667	fungi
MA0435	1	YPR015C	""	4932	C2H2 zinc finger factors	Other factors with up to three adjacent zinc fingers	CORE	PBM		18842628	fungi
MA0436	1	YPR022C	""	4932	C2H2 zinc finger factors	Other factors with up to three adjacent zinc fingers	CORE	PBM, CSA and/or DIP-chip		19111667	fungi
MA0437	1	YPR196W	""	4932	C6 zinc cluster factors	""	CORE	PBM, CSA and/or DIP-chip		19111667	fungi
MA0438	1	YRM1	""	4932	C6 zinc cluster factors	""	CORE	PBM, CSA and/or DIP-chip		19111667	fungi
MA0439	1	YRR1	""	4932	C6 zinc cluster factors	""	CORE	PBM, CSA and/or DIP-chip		19111667	fungi
MA0440	1	ZAP1	""	4932	C2H2 zinc finger factors	Factors with multiple dispersed zinc fingers	CORE	ChIP-chip		16522208	fungi
MA0441	1	ZMS1	""	4932	C2H2 zinc finger factors	Other factors with up to three adjacent zinc fingers	CORE	PBM, CSA and/or DIP-chip		19111667	fungi
UN0083	1	ada-1	""	5141	Basic leucine zipper factors (bZIP)	""	UNVALIDATED	PBM	31133749	""	fungi
UN0084	1	ada-3	""	5141	C6 zinc cluster factors	""	UNVALIDATED	PBM	31133749	""	fungi
UN0085	1	clr-2	""	5141	C6 zinc cluster factors	""	UNVALIDATED	PBM	31133749	26463163	fungi
UN0086	1	col-24	""	5141	C6 zinc cluster factors	""	UNVALIDATED	PBM	31133749	""	fungi
MA1432	1	cre-1	""	5141	C2H2 zinc finger factors	Other factors with up to three adjacent zinc fingers	CORE	PBM	31133749	21980519	fungi
MA1433	1	msn-1	""	5141	C2H2 zinc finger factors	Other factors with up to three adjacent zinc fingers	CORE	PBM	31133749	26994287	fungi
MA1435	1	nit-4	""	5141	C6 zinc cluster factors	""	CORE	PBM	31133749	7596294	fungi
MA1436	1	nuc-1	""	5141	Basic helix-loop-helix factors (bHLH)	""	CORE	PBM	31133749	7969122	fungi
MA1431	1	rst2	""	4896	C2H2 zinc finger factors	Other factors with up to three adjacent zinc fingers	CORE	PBM	31133749	10982411	fungi
UN0081	1	rsv2	""	4896	C2H2 zinc finger factors	Other factors with up to three adjacent zinc fingers	UNVALIDATED	PBM	31133749	""	fungi
UN0097	1	sub-1	""	5141	Other C4 zinc finger-type factors	C4-GATA-related	UNVALIDATED	PBM	31133749	""	fungi
UN0098	1	vad-2	""	5141	C6 zinc cluster factors	""	UNVALIDATED	PBM	31133749	""	fungi
MA1437	1	wc-1	""	5141	Other C4 zinc finger-type factors	C4-GATA-related	CORE	PBM	31133749	12098706	fungi
